time,total_free_energy
0.1000000000,936.9736226033
0.3000000000,934.5941013345
0.7000000000,929.5773423536
1.5000000000,917.2136394736
3.1000000000,879.6642211469
6.3000000000,756.5898094452
7.9000000000,697.5798769244
11.1000000000,624.8739420633
12.7000000000,600.9971760889
15.9000000000,570.2036739908
22.3000000000,532.0490039305
25.5000000000,517.7509835429
27.1000000000,511.6790095696
30.3000000000,501.5149749832
36.7000000000,484.4559508387
39.9000000000,477.0671193978
41.5000000000,473.7689658407
44.7000000000,467.9894670586
51.1000000000,457.8977155484
54.3000000000,453.0486895002
60.7000000000,444.0080969500
63.9000000000,439.7991178535
70.3000000000,432.1138413365
73.5000000000,428.4982771776
79.9000000000,421.2873292350
83.1000000000,417.5226629843
84.7000000000,415.6853589981
87.9000000000,412.0654699420
94.3000000000,405.2618414250
97.5000000000,402.5342089403
103.9000000000,397.9463847681
116.7000000000,395.7908925951
119.9000000000,393.6897513379
126.3000000000,389.3687507746
129.5000000000,387.1333108993
135.9000000000,382.2749389731
139.1000000000,379.9679512728
145.5000000000,375.9162813714
158.3000000000,374.0064252132
161.5000000000,372.1476148535
167.9000000000,368.2104989803
171.1000000000,366.1906740062
172.7000000000,365.2139236515
175.9000000000,363.3476438288
182.3000000000,359.6713932006
185.5000000000,357.8120209826
191.9000000000,353.9366754111
195.1000000000,352.1067731607
201.5000000000,348.7523300715
214.3000000000,347.1385795329
217.5000000000,345.5555732874
223.9000000000,342.3947956980
227.1000000000,340.7598739164
233.5000000000,337.0890958356
236.7000000000,335.3283101102
243.1000000000,332.1605527677
255.9000000000,330.6514614246
259.1000000000,329.1800235085
265.5000000000,326.2884978576
278.3000000000,324.8191325614
281.5000000000,323.2773265300
287.9000000000,320.1722388956
291.1000000000,318.6754990704
297.5000000000,315.8393658781
310.3000000000,310.6473627679
316.7000000000,308.2004403598
329.5000000000,307.0096590201
332.7000000000,305.8383092058
339.1000000000,303.4487965348
342.3000000000,302.2542319306
348.7000000000,299.9647005311
361.5000000000,295.7149474021
367.9000000000,293.6889448708
380.7000000000,289.8591123679
387.1000000000,288.0217143681
399.9000000000,287.1221740341
403.1000000000,286.2374484370
409.5000000000,284.5069677746
422.3000000000,283.6474574987
425.5000000000,282.7720822736
431.9000000000,280.9799982116
435.1000000000,280.1075860219
441.5000000000,278.4465696454
454.3000000000,275.3655919889
460.7000000000,273.8920403967
473.5000000000,270.9928570460
479.9000000000,269.3416812270
483.1000000000,268.3843857063
489.5000000000,266.4685598304
492.7000000000,265.6576385776
499.1000000000,264.3752483463
511.9000000000,262.2490094619
537.5000000000,258.4430101772
550.3000000000,256.6193542301
575.9000000000,252.9401767502
588.7000000000,252.4681048642
591.9000000000,251.9847261752
598.3000000000,250.8820818765
601.5000000000,250.1632376349
607.9000000000,248.5040827565
611.1000000000,247.8827420625
617.5000000000,246.9876092671
630.3000000000,245.6140648385
655.9000000000,243.2409194902
668.7000000000,242.1117660702
694.3000000000,239.9415423915
707.1000000000,238.8867841709
732.7000000000,236.8605851920
745.5000000000,235.8737309899
771.1000000000,233.9552360004
783.9000000000,233.0164786809
809.5000000000,231.1961212106
822.3000000000,230.3033272480
847.9000000000,228.5566683526
860.7000000000,227.6984608056
886.3000000000,226.0232793087
937.5000000000,222.8034758058
963.1000000000,221.2384307887
1014.3000000000,218.2002189867
1039.9000000000,216.7088966698
1091.1000000000,213.7711320165
1116.7000000000,212.3114408466
1167.9000000000,209.3995937931
1193.5000000000,207.9434746992
1244.7000000000,204.9948431844
1270.3000000000,203.5046529528
1321.5000000000,200.4372449662
1347.1000000000,198.8313822692
1359.9000000000,197.9969990373
1385.5000000000,197.5689779352
1391.9000000000,197.1293051483
1404.7000000000,196.1721832992
1411.1000000000,195.6327614632
1423.9000000000,195.3277146408
1427.1000000000,194.9452746542
1433.5000000000,193.8304823500
1436.7000000000,193.3238215021
1443.1000000000,192.6367823786
1455.9000000000,191.7181963164
1481.5000000000,190.3405687958
1532.7000000000,187.9108370941
1558.3000000000,186.7273043667
1609.5000000000,184.3714063711
1635.1000000000,183.1954386394
1686.3000000000,180.8621878793
1711.9000000000,179.7049480895
1763.1000000000,177.3642591720
1788.7000000000,176.1775882675
1839.9000000000,175.5771676712
1852.7000000000,174.9652399429
1878.3000000000,174.6536521751
1884.7000000000,174.3353918015
1897.5000000000,173.6519193759
1903.9000000000,173.2722027134
1916.7000000000,173.0588247170
1919.9000000000,172.7888787107
1926.3000000000,172.1185803948
1929.5000000000,171.8517490368
1935.9000000000,171.4395697837
1948.7000000000,170.7541938009
1974.3000000000,170.4200911075
1980.7000000000,170.0530114832
1993.5000000000,169.8297181655
1996.7000000000,169.5162828956
2003.1000000000,168.9535125306
2006.3000000000,168.7423171990
2012.7000000000,168.4136793598
2025.5000000000,167.8922767984
2051.1000000000,167.0027770665
2102.3000000000,165.3635991755
2127.9000000000,164.5699605678
2179.1000000000,163.0408586197
2204.7000000000,162.2990585935
2255.9000000000,160.8733013916
2281.5000000000,160.1778180748
2332.7000000000,158.8271814039
2358.3000000000,158.1670504673
2409.5000000000,156.8897253222
2435.1000000000,156.2675056111
2486.3000000000,155.0653367885
2511.9000000000,154.4786483875
2563.1000000000,153.3336699287
2588.7000000000,152.7694921276
2639.9000000000,151.6692004819
2665.5000000000,151.1316380312
2716.7000000000,150.0961268325
2742.3000000000,149.5933153803
2793.5000000000,148.6269119414
2819.1000000000,148.1556953511
2870.3000000000,147.2321436999
2895.9000000000,146.7747154249
2947.1000000000,145.8732503249
2972.7000000000,145.4296465498
3023.9000000000,144.5677869476
3049.5000000000,144.1466613557
3100.7000000000,143.3282419320
3126.3000000000,142.9262999582
3177.5000000000,142.1395083375
3203.1000000000,141.7523534860
3254.3000000000,140.9940551515
3279.9000000000,140.6202212630
3331.1000000000,139.8876302413
3356.7000000000,139.5274698078
3407.9000000000,138.8223271444
3433.5000000000,138.4736179548
3484.7000000000,137.7825230799
3510.3000000000,137.4394463976
3561.5000000000,136.7614940895
3587.1000000000,136.4261812800
3638.3000000000,135.7661525687
3663.9000000000,135.4395156639
3715.1000000000,134.7912849674
3740.7000000000,134.4686290829
3791.9000000000,133.8337313026
3817.5000000000,133.5216732683
3868.7000000000,132.9066416276
3894.3000000000,132.6000062745
3945.5000000000,131.9881500106
3971.1000000000,131.6844443894
4022.3000000000,131.0858895150
4047.9000000000,130.7898225708
4099.1000000000,130.2036962467
4124.7000000000,129.9116971026
4175.9000000000,129.3287298144
4201.5000000000,129.0386543822
4252.7000000000,128.4669770666
4278.3000000000,128.1845983503
4329.5000000000,127.6265946023
4355.1000000000,127.3492762818
4406.3000000000,126.7973632276
4431.9000000000,126.5219483258
4483.1000000000,125.9703714472
4508.7000000000,125.6946589403
4559.9000000000,125.1461233986
4585.5000000000,124.8732917799
4636.7000000000,124.3297018320
4662.3000000000,124.0576472543
4713.5000000000,123.5072179923
4739.1000000000,123.2285732623
4790.3000000000,122.6542113923
4815.9000000000,122.3582050337
4867.1000000000,121.7214007279
4892.7000000000,121.3777646029
4905.5000000000,121.1961799037
4931.1000000000,120.7627272209
4943.9000000000,120.7024047340
4947.1000000000,120.6382457242
4953.5000000000,120.4827669446
4966.3000000000,120.3840320057
4969.5000000000,120.2349932540
4975.9000000000,119.8140921503
4979.1000000000,119.6642265268
4985.5000000000,119.4752857493
4998.3000000000,119.2364009935
5023.9000000000,118.9184488859
5075.1000000000,118.4527155825
5100.7000000000,118.2422148973
5151.9000000000,117.8393080554
5177.5000000000,117.6399408762
5228.7000000000,117.2415480160
5254.3000000000,117.0421614338
5305.5000000000,116.6424123153
5331.1000000000,116.4421240130
5382.3000000000,116.0398439148
5407.9000000000,115.8380154724
5459.1000000000,115.4312073703
5484.7000000000,115.2262986508
5535.9000000000,114.8098878287
5561.5000000000,114.5986489115
5612.7000000000,114.1627958903
5638.3000000000,113.9379588833
5689.5000000000,113.4546693240
5715.1000000000,113.1949626750
5727.9000000000,113.0585422118
5753.5000000000,112.7510886583
5766.3000000000,112.5750402012
5791.9000000000,112.4779302597
5798.3000000000,112.3695218137
5811.1000000000,112.3102695265
5814.3000000000,112.2450181386
5820.7000000000,112.0496296007
5823.9000000000,111.8737245316
5830.3000000000,111.4847081671
5833.5000000000,111.3556025812
5839.9000000000,111.1925550698
5852.7000000000,110.9913949004
5878.3000000000,110.7392638420
5929.5000000000,110.3984796017
5955.1000000000,110.2508095504
6006.3000000000,109.9796155671
6031.9000000000,109.8489368817
6083.1000000000,109.5959896258
6108.7000000000,109.4717964071
6159.9000000000,109.2280050245
6185.5000000000,109.1074060071
6236.7000000000,108.8688349212
6262.3000000000,108.7503545063
6313.5000000000,108.5154221807
6339.1000000000,108.3987012182
6390.3000000000,108.1674225586
6415.9000000000,108.0526062223
6467.1000000000,107.8253742388
6492.7000000000,107.7127011566
6543.9000000000,107.4904427617
6569.5000000000,107.3805612548
6620.7000000000,107.1643295148
6646.3000000000,107.0573648088
6697.5000000000,106.8457831900
6723.1000000000,106.7405805012
6774.3000000000,106.5309783280
6799.9000000000,106.4263345517
6851.1000000000,106.2173828563
6876.7000000000,106.1131883573
6927.9000000000,105.9067578673
6953.5000000000,105.8045920197
7004.7000000000,105.6038357317
7030.3000000000,105.5047846339
7081.5000000000,105.3103454854
7107.1000000000,105.2144485102
7158.3000000000,105.0263877457
7183.9000000000,104.9336675953
7235.1000000000,104.7514039778
7260.7000000000,104.6612566839
7311.9000000000,104.4833529389
7337.5000000000,104.3952204149
7388.7000000000,104.2208994939
7414.3000000000,104.1342913115
7465.5000000000,103.9620212763
7491.1000000000,103.8761498155
7542.3000000000,103.7052972488
7567.9000000000,103.6203161958
7619.1000000000,103.4519462650
7644.7000000000,103.3683796848
7695.9000000000,103.2029373818
7721.5000000000,103.1207967286
7772.7000000000,102.9580159950
7798.3000000000,102.8771458880
7849.5000000000,102.7167910719
7875.1000000000,102.6371213442
7926.3000000000,102.4794295294
7951.9000000000,102.4012885130
8003.1000000000,102.2472480119
8028.7000000000,102.1710330472
8079.9000000000,102.0206029307
8105.5000000000,101.9460209264
8156.7000000000,101.7983101752
8182.3000000000,101.7248966031
8233.5000000000,101.5789749169
8259.1000000000,101.5062550772
8310.3000000000,101.3612203114
8335.9000000000,101.2888197896
8387.1000000000,101.1444378602
8412.7000000000,101.0724883496
8463.9000000000,100.9297394421
8489.5000000000,100.8589203877
8540.7000000000,100.7192331710
8566.3000000000,100.6501489051
8617.5000000000,100.5140737480
8643.1000000000,100.4467268124
8694.3000000000,100.3135952122
8719.9000000000,100.2474865822
8771.1000000000,100.1162338613
8796.7000000000,100.0509091069
8847.9000000000,99.9210778555
8873.5000000000,99.8564854177
8924.7000000000,99.7283522886
8950.3000000000,99.6647008464
9001.5000000000,99.5386035767
9027.1000000000,99.4759832706
9078.3000000000,99.3518779584
9103.9000000000,99.2902234950
9155.1000000000,99.1680408235
9180.7000000000,99.1073783349
9231.9000000000,98.9873941407
9257.5000000000,98.9279328325
9308.7000000000,98.8106612156
9334.3000000000,98.7526576999
9385.5000000000,98.6385142665
9411.1000000000,98.5821230275
9462.3000000000,98.4712137276
9564.7000000000,98.2560666147
9615.9000000000,98.1505638331
9718.3000000000,97.9438196274
9769.5000000000,97.8416346012
9871.9000000000,97.6402147025
9923.1000000000,97.5406710324
9948.7000000000,97.4912145807
9999.9000000000,97.3931944947
10025.5000000000,97.3445096156
10076.7000000000,97.2480819208
10102.3000000000,97.2002218677
10153.5000000000,97.1055542159
10255.9000000000,96.9204665204
10307.1000000000,96.8293307480
10409.5000000000,96.6497788305
10460.7000000000,96.5606017882
10563.1000000000,96.3831922602
10614.3000000000,96.2949510004
10716.7000000000,96.1201100557
10767.9000000000,96.0332473836
10870.3000000000,95.8606900394
10921.5000000000,95.7747474336
11023.9000000000,95.6036618017
11075.1000000000,95.5184837949
11177.5000000000,95.3496477303
11228.7000000000,95.2659066976
11331.1000000000,95.1003879829
11382.3000000000,95.0182689545
11484.7000000000,94.8553893182
11535.9000000000,94.7743486429
11638.3000000000,94.6132099539
11689.5000000000,94.5330029691
11791.9000000000,94.3738249237
11843.1000000000,94.2947698544
11945.5000000000,94.1383402412
11996.7000000000,94.0607392600
12099.1000000000,93.9070323877
12150.3000000000,93.8306129007
12252.7000000000,93.6785167147
12303.9000000000,93.6026647539
12406.3000000000,93.4514998230
12457.5000000000,93.3761670283
12559.9000000000,93.2264297781
12611.1000000000,93.1519578007
12713.5000000000,93.0042572187
12764.7000000000,92.9308851824
12867.1000000000,92.7855375231
12918.3000000000,92.7133657181
13020.7000000000,92.5702025967
13071.9000000000,92.4989519524
13174.3000000000,92.3571087840
13225.5000000000,92.2864423404
13327.9000000000,92.1460909869
13379.1000000000,92.0763484704
13481.5000000000,91.9383308670
13532.7000000000,91.8699414773
13635.1000000000,91.7351073648
13686.3000000000,91.6683734144
13788.7000000000,91.5364251403
13839.9000000000,91.4708655798
13942.3000000000,91.3405267975
13993.5000000000,91.2755958504
14095.9000000000,91.1462923605
14147.1000000000,91.0818020851
14249.5000000000,90.9530737589
14300.7000000000,90.8887940935
14403.1000000000,90.7606830142
14454.3000000000,90.6969055251
14556.7000000000,90.5705818670
14607.9000000000,90.5079658512
14710.3000000000,90.3843367336
14761.5000000000,90.3230273760
14863.9000000000,90.2012418238
14915.1000000000,90.1404710620
15017.5000000000,90.0187491171
15068.7000000000,89.9577760403
15171.1000000000,89.8356255128
15222.3000000000,89.7746008598
15324.7000000000,89.6533795785
15375.9000000000,89.5932447281
15478.3000000000,89.4745114894
15529.5000000000,89.4156410492
15631.9000000000,89.2987489055
15683.1000000000,89.2404274127
15785.5000000000,89.1235187585
15836.7000000000,89.0648802317
15939.1000000000,88.9470548068
15990.3000000000,88.8880312500
16092.7000000000,88.7702579218
16143.9000000000,88.7116538788
16246.3000000000,88.5955048840
16297.5000000000,88.5377557852
16399.9000000000,88.4226128587
16451.1000000000,88.3650112948
16553.5000000000,88.2493509326
16604.7000000000,88.1913688376
16707.1000000000,88.0753287597
16758.3000000000,88.0174371227
16860.7000000000,87.9026362043
16911.9000000000,87.8457575173
17014.3000000000,87.7338542843
17065.5000000000,87.6786070443
17167.9000000000,87.5700134663
17219.1000000000,87.5163512161
17321.5000000001,87.4105188693
17372.7000000001,87.3580394751
17475.1000000001,87.2538462145
17526.3000000001,87.2019465271
17628.7000000001,87.0988706399
17679.9000000001,87.0477363944
17782.3000000001,86.9469443640
17833.5000000001,86.8970780139
17935.9000000001,86.7985021051
17987.1000000001,86.7495171589
18089.5000000001,86.6521628012
18140.7000000001,86.6037342029
18243.1000000001,86.5077859093
18294.3000000001,86.4601668357
18396.7000000001,86.3658019992
18447.9000000001,86.3188689183
18550.3000000001,86.2254303381
18601.5000000001,86.1788141420
18703.9000000001,86.0857576025
18755.1000000001,86.0392750448
18857.5000000001,85.9463184561
18908.7000000001,85.8998067241
19011.1000000001,85.8065605695
19062.3000000001,85.7598552608
19164.7000000001,85.6663229331
19215.9000000001,85.6195736702
19318.3000000001,85.5263794638
19369.5000000001,85.4799614924
19471.9000000001,85.3878026622
19523.1000000001,85.3419957383
19625.5000000001,85.2511792805
19676.7000000001,85.2060606730
19779.1000000001,85.1166224497
19830.3000000001,85.0721898377
19932.7000000001,84.9841546423
19983.9000000001,84.9404626670
20086.3000000001,84.8541438958
20137.5000000001,84.8114075581
20239.9000000001,84.7271659616
20291.1000000001,84.6854658775
20393.5000000001,84.6030306103
20444.7000000001,84.5620795697
20547.1000000001,84.4805838003
20598.3000000001,84.4398988622
20700.7000000001,84.3584818390
20751.9000000001,84.3177387917
20854.3000000001,84.2362420827
20905.5000000001,84.1955566800
21007.9000000001,84.1147030944
21059.1000000001,84.0745651550
21161.5000000001,83.9953996073
21212.7000000001,83.9562665530
21315.1000000001,83.8793195704
21366.3000000001,83.8413119009
21468.7000000001,83.7665104406
21519.9000000001,83.7295137979
21622.3000000001,83.6565219263
21673.5000000001,83.6203506059
21775.9000000001,83.5487834877
21827.1000000001,83.5132446226
21929.5000000001,83.4427485999
21980.7000000001,83.4076950210
22083.1000000001,83.3381204297
22134.3000000001,83.3035251808
22236.7000000001,83.2348202499
22287.9000000001,83.2006131013
22390.3000000001,83.1324520817
22441.5000000001,83.0984243627
22543.9000000001,83.0304047136
22595.1000000001,82.9963884056
22697.5000000001,82.9282626314
22748.7000000001,82.8941457145
22851.1000000001,82.8256594376
22902.3000000001,82.7913032207
23004.7000000001,82.7222252870
23055.9000000001,82.6875662461
23158.3000000001,82.6180483697
23209.5000000001,82.5832775898
23311.9000000001,82.5139245004
23363.1000000001,82.4793656767
23465.5000000001,82.4106752872
23516.7000000001,82.3764942710
23619.1000000001,82.3085797390
23670.3000000001,82.2747811058
23772.7000000001,82.2076441185
23823.9000000001,82.1742551027
23926.3000000001,82.1080277379
23977.5000000001,82.0751229167
24079.9000000001,82.0099202606
24131.1000000001,81.9775400548
24233.5000000001,81.9133619535
24284.7000000001,81.8814589749
24387.1000000002,81.8180396867
24438.3000000002,81.7864389479
24540.7000000002,81.7235129464
24591.9000000002,81.6921721836
24694.3000000002,81.6300029195
24745.5000000002,81.5991574515
24847.9000000002,81.5383085123
24899.1000000002,81.5082162881
25001.5000000002,81.4489829750
25052.7000000002,81.4196929428
25155.1000000002,81.3619120263
25206.3000000002,81.3332706484
25308.7000000002,81.2765492730
25359.9000000002,81.2483607766
25462.3000000002,81.1923776727
25513.5000000002,81.1645058722
25615.9000000002,81.1089964679
25667.1000000002,81.0812948640
25769.5000000002,81.0259161777
25820.7000000002,80.9982091118
25923.1000000002,80.9426912413
25974.3000000002,80.9148967873
26076.7000000002,80.8592565611
26127.9000000002,80.8314379818
26230.3000000002,80.7758709599
26281.5000000002,80.7481269867
26383.9000000002,80.6927754237
26435.1000000002,80.6651506380
26537.5000000002,80.6100301376
26588.7000000002,80.5825100668
26691.1000000002,80.5275509406
26742.3000000002,80.5000927552
26844.7000000002,80.4452098841
26895.9000000002,80.4177759535
26998.3000000002,80.3629107576
27049.5000000002,80.3354737804
27151.9000000002,80.2805487075
27203.1000000002,80.2530567287
27305.5000000002,80.1979572811
27356.7000000002,80.1703689986
27459.1000000002,80.1151301000
27510.3000000002,80.0875066941
27612.7000000002,80.0322979197
27663.9000000002,80.0047182863
27766.3000000002,79.9496592580
27817.5000000002,79.9221781327
27919.9000000002,79.8674125648
27971.1000000002,79.8401220746
28073.5000000002,79.7858832297
28124.7000000002,79.7589076149
28227.1000000002,79.7054149966
28278.3000000002,79.6788420038
28380.7000000002,79.6261863661
28431.9000000002,79.6000304736
28534.3000000002,79.5481690776
28585.5000000002,79.5223893582
28687.9000000002,79.4712081962
28739.1000000002,79.4457412079
28841.5000000002,79.3951079871
28892.7000000002,79.3698876600
28995.1000000002,79.3196725942
29046.3000000002,79.2946343096
29148.7000000002,79.2447026157
29199.9000000002,79.2197748549
29302.3000000002,79.1699659083
29353.5000000002,79.1450620351
29455.9000000002,79.0951940057
29507.1000000002,79.0702244934
29609.5000000002,79.0201426950
29660.7000000002,78.9950437068
29763.1000000002,78.9446677322
29814.3000000002,78.9194156261
29916.7000000002,78.8687341731
29967.9000000002,78.8433327108
30070.3000000002,78.7923707791
30121.5000000002,78.7668375399
30223.9000000002,78.7156391322
30275.1000000002,78.6899964915
30377.5000000002,78.6385929050
30428.7000000002,78.6128487291
30531.1000000002,78.5612353240
30582.3000000002,78.5353841425
30684.7000000002,78.4835656475
30735.9000000002,78.4576209417
30838.3000000002,78.4056541976
30889.5000000002,78.3796483491
30991.9000000002,78.3275718489
31043.1000000002,78.3015064822
31145.5000000002,78.2492629425
31196.7000000002,78.2230889523
31299.1000000002,78.1705375941
31350.3000000003,78.1441755497
31452.7000000003,78.0911669678
31503.9000000003,78.0645571323
31606.3000000003,78.0110559275
31657.5000000003,77.9842183072
31759.9000000003,77.9303732564
31811.1000000003,77.9034153025
31913.5000000003,77.8494876413
31964.7000000003,77.8225416950
32067.1000000003,77.7687662013
32118.3000000003,77.7419408440
32220.7000000003,77.6885665192
32271.9000000003,77.6620149166
32374.3000000003,77.6094399784
32425.5000000003,77.5833780911
32527.9000000003,77.5319755439
32579.1000000003,77.5065430040
32681.5000000003,77.4564102493
32732.7000000003,77.4315884017
32835.1000000003,77.3825215678
32886.3000000003,77.3581594088
32988.7000000003,77.3097682393
33039.9000000003,77.2856537451
33142.3000000003,77.2375238298
33193.5000000003,77.2134678332
33295.9000000003,77.1653139480
33347.1000000003,77.1412128008
33449.5000000003,77.0929256561
33500.7000000003,77.0687492269
33603.1000000003,77.0202823433
33654.3000000003,76.9959989783
33756.7000000003,76.9472371587
33807.9000000003,76.9227691438
33910.3000000003,76.8735072777
33961.5000000003,76.8487363602
34063.9000000003,76.7986964795
34115.1000000003,76.7734693555
34217.5000000003,76.7223155716
34268.7000000003,76.6964613552
34371.1000000003,76.6439054075
34422.3000000003,76.6173259965
34524.7000000003,76.5634189617
34575.9000000002,76.5362462337
34678.3000000003,76.4814976430
34729.5000000002,76.4540366682
34831.9000000002,76.3990495332
34883.1000000002,76.3715692858
34985.5000000002,76.3167180033
35036.7000000002,76.2893359884
35139.1000000002,76.2346545845
35190.3000000002,76.2073242876
35292.7000000002,76.1526018040
35343.9000000002,76.1251955085
35446.3000000002,76.0701831149
35497.5000000002,76.0425920749
35599.9000000002,75.9871292599
35651.1000000002,75.9592900203
35753.5000000002,75.9032947534
35804.7000000002,75.8751923853
35907.1000000002,75.8187730579
35958.3000000002,75.7905171102
36060.7000000002,75.7339797749
36111.9000000002,75.7057253615
36214.3000000002,75.6493046066
36265.5000000002,75.6211298976
36367.9000000002,75.5648529134
36419.1000000002,75.5367264246
36521.5000000002,75.4804336864
36572.7000000002,75.4522521126
36675.1000000002,75.3957007436
36726.3000000002,75.3673325920
36828.7000000002,75.3102209132
36879.9000000002,75.2814958101
36982.3000000002,75.2234139794
37033.5000000002,75.1941072856
37135.9000000002,75.1346413510
37187.1000000002,75.1046036811
37289.5000000002,75.0438124368
37340.7000000002,75.0132264377
37443.1000000002,74.9517699701
37494.3000000002,74.9209974477
37596.7000000002,74.8594750489
37647.9000000002,74.8287491838
37750.3000000002,74.7674383498
37801.5000000002,74.7368319653
37903.9000000002,74.6756944483
37955.1000000002,74.6451259547
38057.5000000002,74.5838492112
38108.7000000002,74.5531170283
38211.1000000002,74.4911991769
38262.3000000002,74.4600293768
38364.7000000002,74.3969568326
38415.9000000002,74.3651429808
38518.3000000002,74.3007449297
38569.5000000002,74.2682859602
38671.9000000002,74.2027028255
38723.1000000002,74.1696938809
38825.5000000002,74.1031315524
38876.7000000002,74.0696784520
38979.1000000002,74.0023984592
39030.3000000002,73.9686636572
39132.7000000002,73.9010680419
39183.9000000002,73.8672585864
39286.3000000002,73.7996963549
39337.5000000002,73.7659521298
39439.9000000002,73.6985795534
39491.1000000002,73.6649232030
39593.5000000002,73.5975468938
39644.7000000002,73.5637674159
39747.1000000002,73.4955413704
39798.3000000002,73.4610598829
39900.7000000002,73.3906489566
39951.9000000002,73.3548970703
40054.3000000002,73.2821189630
40105.5000000002,73.2453837474
40207.9000000002,73.1711506569
40259.1000000002,73.1337561061
40361.5000000002,73.0579639030
40412.7000000002,73.0196536388
40515.1000000002,72.9418551788
40566.3000000002,72.9026118641
40591.9000000002,72.8829300723
40643.1000000002,72.8434779648
40668.7000000002,72.8237435123
40719.9000000002,72.7843317600
40745.5000000002,72.7646650312
40796.7000000002,72.7254885302
40899.1000000002,72.6477864534
40950.3000000002,72.6090924201
41052.7000000002,72.5314125337
41103.9000000002,72.4921907039
41206.3000000002,72.4115226115
41257.5000000002,72.3701561021
41283.1000000002,72.3491878064
41334.3000000002,72.3064314183
41359.9000000002,72.2847652546
41411.1000000002,72.2406802117
41436.7000000002,72.2183937122
41487.9000000002,72.1732573556
41513.5000000002,72.1505253000
41564.7000000002,72.1047400769
41590.3000000002,72.0817679402
41641.5000000002,72.0357106440
41667.1000000002,72.0126656411
41718.3000000001,71.9665887258
41743.9000000001,71.9435635009
41795.1000000001,71.8975477418
41820.7000000001,71.8745442283
41871.9000000001,71.8284889721
41897.5000000001,71.8054223159
41948.7000000001,71.7590774036
41974.3000000001,71.7357993930
42025.5000000001,71.6888277742
42051.1000000001,71.6651627326
42102.3000000001,71.6172238613
42127.9000000001,71.5930140115
42179.1000000001,71.5438554483
42204.7000000001,71.5190020669
42255.9000000001,71.4685099464
42281.5000000001,71.4429869509
42332.7000000001,71.3912090459
42358.3000000001,71.3650807219
42409.5000000001,71.3122490811
42435.1000000001,71.2856528878
42486.3000000001,71.2320177179
42511.9000000001,71.2050535236
42563.1000000001,71.1507424276
42588.7000000001,71.1234582089
42639.9000000001,71.0685523283
42665.5000000001,71.0409812388
42716.7000000001,70.9854688629
42742.3000000001,70.9575558638
42793.5000000001,70.9011263815
42819.1000000001,70.8726388517
42870.3000000001,70.8146406476
42895.9000000001,70.7852051832
42947.1000000001,70.7248610643
42972.7000000001,70.6941134932
43023.9000000001,70.6309226164
43049.5000000001,70.5987382714
43100.7000000001,70.5329212069
43126.3000000001,70.4995789671
43177.5000000001,70.4320007715
43203.1000000001,70.3979682853
43254.3000000001,70.3293936259
43279.9000000001,70.2949430692
43331.1000000001,70.2255286497
43356.7000000001,70.1905973067
43407.9000000001,70.1198641341
43433.5000000001,70.0841122862
43484.7000000000,70.0112275012
43510.3000000000,69.9742143728
43561.5000000000,69.8982622763
43587.1000000000,69.8595103392
43638.3000000000,69.7794912892
43663.9000000000,69.7385172116
43715.1000000000,69.6536731611
43740.7000000000,69.6101844658
43791.9000000000,69.5200902122
43817.5000000000,69.4739071116
43868.7000000000,69.3781880339
43894.3000000000,69.3290610063
43945.5000000000,69.2268021112
43971.1000000000,69.1741359362
44022.3000000000,69.0641618205
44047.9000000000,69.0073753508
44099.1000000000,68.8872381076
44124.7000000000,68.8242142328
44175.9000000000,68.6871965039
44201.5000000000,68.6141940155
44214.3000000000,68.5764913812
44239.9000000000,68.4975444341
44252.7000000000,68.4567674393
44278.3000000000,68.3712606190
44291.1000000000,68.3269415113
44316.7000000000,68.2326143881
44329.5000000000,68.1828688800
44355.1000000000,68.0730789251
44367.9000000000,68.0136356731
44393.5000000000,67.8776923183
44406.3000000000,67.8015449079
44431.9000000000,67.5995493489
44444.7000000000,67.4574179743
44451.1000000000,67.3592180150
44463.9000000000,67.2941656662
44467.1000000000,67.1946220787
44473.5000000000,66.8337269955
44476.7000000000,66.7016170125
44483.1000000000,66.5554538844
44495.9000000000,66.4060369932
44521.5000000000,66.2523285554
44572.7000000000,66.0929207435
44675.1000000000,65.9406651865
44726.3000000000,65.8927664840
44828.7000000000,65.8347844204
45033.5000000000,65.7743308833
45135.9000000000,65.7524096839
45340.7000000000,65.7164296534
45443.1000000000,65.6996550300
45647.9000000000,65.6673587528
45750.3000000000,65.6514374738
45801.5000000000,65.6435155085
45903.9000000000,65.6277489865
45955.1000000000,65.6198880087
46057.5000000000,65.6042136003
46108.7000000000,65.5963902498
46211.1000000000,65.5807719162
46262.3000000000,65.5729705011
46364.7000000000,65.5573813003
46415.9000000000,65.5495898022
46518.3000000000,65.5340097597
46569.5000000000,65.5262196097
46671.9000000000,65.5106349792
46723.1000000000,65.5028402542
46825.5000000000,65.4872405972
46876.7000000000,65.4794362579
46979.1000000000,65.4638111307
47030.3000000000,65.4559917382
47132.7000000000,65.4403300317
47183.9000000000,65.4324902058
47286.3000000000,65.4167830613
47337.5000000000,65.4089194617
47439.9000000000,65.3931645897
47491.1000000000,65.3852778709
47593.5000000000,65.3694817845
47644.7000000000,65.3615769212
47747.1000000000,65.3457532256
47798.3000000000,65.3378379230
47900.7000000000,65.3220029672
47951.9000000000,65.3140853684
48054.3000000000,65.2982544504
48105.5000000000,65.2903417639
48207.9000000000,65.2745283089
48259.1000000000,65.2666270514
48361.5000000000,65.2508440816
48412.7000000000,65.2429607979
48515.1000000000,65.2272208826
48566.3000000000,65.2193613461
48668.7000000000,65.2036731600
48719.9000000000,65.1958403870
48822.3000000000,65.1802061092
48873.5000000000,65.1724000429
48975.9000000000,65.1568181948
49027.1000000000,65.1490382132
49129.5000000000,65.1335099695
49180.7000000000,65.1257578887
49283.1000000000,65.1102904435
49334.3000000000,65.1025708408
49436.7000000000,65.0871738435
49487.9000000000,65.0794909604
49590.3000000000,65.0641683286
49641.5000000000,65.0565218359
49743.9000000000,65.0412650909
49795.1000000000,65.0336479308
49897.5000000000,65.0184368132
49948.7000000000,65.0108375836
50051.1000000000,64.9956508632
50102.3000000000,64.9880610457
50204.7000000000,64.9728923582
50255.9000000000,64.9653132294
50358.3000000000,64.9501761987
50409.5000000000,64.9426173577
50511.9000000000,64.9275331303
50563.1000000000,64.9200044565
50665.5000000000,64.9049878952
50716.7000000000,64.8974948405
50819.1000000000,64.8825519446
50870.3000000000,64.8750960005
50972.7000000000,64.8602259531
51023.9000000000,64.8528052645
51126.3000000000,64.8379993896
51177.5000000000,64.8306075466
51279.9000000000,64.8158463752
51331.1000000000,64.8084711705
51433.5000000000,64.7937236198
51484.7000000000,64.7863473449
51587.1000000000,64.7715731268
51638.3000000000,64.7641742966
51740.7000000000,64.7493282893
51791.9000000000,64.7418840355
51894.3000000000,64.7269213795
51945.5000000000,64.7194100734
52047.9000000000,64.7042916278
52099.1000000000,64.6966956911
52201.5000000000,64.6813939122
52252.7000000000,64.6737028410
52355.1000000000,64.6582079003
52406.3000000000,64.6504212557
52508.7000000000,64.6347461239
52559.9000000000,64.6268754797
52662.3000000000,64.6110568412
52713.5000000000,64.6031248361
52815.9000000000,64.5872165782
52867.1000000000,64.5792520736
52969.5000000000,64.5633126370
53020.7000000000,64.5553439487
53123.1000000000,64.5394240932
53174.3000000000,64.5314738902
53276.7000000000,64.5156102442
53327.9000000000,64.5076936232
53430.3000000000,64.4919074559
53481.5000000000,64.4840319331
53583.9000000000,64.4683298715
53635.1000000000,64.4604958703
53737.5000000000,64.4448712389
53788.7000000000,64.4370729552
53891.1000000000,64.4215083458
53942.3000000000,64.4137353870
54044.7000000000,64.3982070257
54095.9000000000,64.3904469905
54198.3000000000,64.3749310298
54249.4999999999,64.3671730567
54351.9000000000,64.3516536384
54403.0999999999,64.3438926427
54505.4999999999,64.3283697370
54556.6999999999,64.3206095974
54659.0999999999,64.3051010237
54710.2999999999,64.2973535321
54812.6999999999,64.2818867611
54863.8999999999,64.2741657727
54966.2999999999,64.2587646567
55017.4999999999,64.2510799067
55119.8999999999,64.2357563563
55171.0999999999,64.2281110660
55273.4999999999,64.2128647629
55324.6999999999,64.2052567404
55427.0999999999,64.1900792405
55631.8999999999,64.1598467415
55734.2999999999,64.1447672769
55939.0999999999,64.1146936334
56041.4999999999,64.0996877118
56092.6999999999,64.0921934817
56195.0999999999,64.0772319168
56246.2999999999,64.0697616109
56348.6999999999,64.0548532303
56399.8999999999,64.0474113082
56502.2999999999,64.0325634645
56553.4999999999,64.0251526922
56655.8999999999,64.0103677358
56707.0999999999,64.0029881834
56809.4999999999,63.9882641649
56860.6999999999,63.9809145766
56963.0999999999,63.9662504848
57014.2999999999,63.9589315229
57116.6999999999,63.9443335857
57167.8999999999,63.9370501929
57270.2999999999,63.9225316085
57321.4999999999,63.9152906101
57423.8999999999,63.9008610586
57475.0999999999,63.8936646934
57577.4999999999,63.8793184095
57628.6999999999,63.8721598118
57731.0999999999,63.8578725874
57935.8999999999,63.8293315197
58038.2999999999,63.8150469736
58089.4999999999,63.8078973119
58191.8999999999,63.7935710095
58243.0999999999,63.7863976671
58345.4999999999,63.7720241706
58396.6999999999,63.7648292747
58499.0999999999,63.7504239768
58550.2999999999,63.7432181448
58652.6999999999,63.7288060050
58703.8999999999,63.7216019879
58806.2999999999,63.7072065528
58857.4999999999,63.7000150068
58959.8999999999,63.6856538836
59164.6999999999,63.6570346739
59267.0999999999,63.6427664363
59471.8999999999,63.6143457849
59574.2999999999,63.6001747265
59779.0999999999,63.5719227259
59881.4999999999,63.5578223645
60086.2999999999,63.5296598685
60188.6999999999,63.5155825887
60393.4999999999,63.4873973486
60495.9000000000,63.4732835725
60547.0999999999,63.4662198298
60649.4999999999,63.4520689038
60700.6999999999,63.4449841629
60803.0999999999,63.4307853756
60854.2999999999,63.4236748013
60956.6999999999,63.4094193044
61007.8999999999,63.4022785175
61110.2999999999,63.3879565109
61161.4999999999,63.3807799126
61263.8999999999,63.3663771424
61315.0999999999,63.3591563029
61417.4999999999,63.3446519666
61468.6999999999,63.3373751533
61571.0999999999,63.3227430663
61622.2999999999,63.3153966646
61724.6999999999,63.3006105093
61775.8999999999,63.2931824425
61878.2999999999,63.2782241584
61929.4999999999,63.2707083384
62031.8999999999,63.2555761762
62083.0999999999,63.2479757685
62185.4999999999,63.2326872332
62236.6999999999,63.2250146355
62339.0999999999,63.2096024965
62390.2999999999,63.2018762264
62492.6999999999,63.1863807842
62543.8999999999,63.1786214999
62646.2999999999,63.1630834401
62697.4999999999,63.1553108083
62799.8999999999,63.1397662261
62851.0999999999,63.1319968454
62953.4999999999,63.1164740500
63004.6999999999,63.1087201760
63107.0999999999,63.0932381429
63158.2999999999,63.0855073232
63260.6999999999,63.0700762921
63311.8999999999,63.0623721646
63414.2999999999,63.0469965315
63465.4999999999,63.0393206508
63567.8999999999,63.0240031623
63619.0999999999,63.0163571147
63721.4999999999,63.0011024833
63772.6999999999,62.9934893298
63875.0999999999,62.9783058194
63926.2999999999,62.9707304174
64028.6999999999,62.9556293475
64079.8999999999,62.9480977635
64182.2999999999,62.9330916027
64233.4999999999,62.9256099476
64335.8999999999,62.9107096078
64387.0999999999,62.9032826269
64489.4999999999,62.8884948619
64540.6999999999,62.8811248180
64643.0999999999,62.8664508361
64694.2999999999,62.8591371751
64796.6999999999,62.8445730289
64847.8999999999,62.8373129279
64950.2999999999,62.8228513562
65155.0999999999,62.7941395405
65257.4999999999,62.7798538726
65308.6999999999,62.7727278816
65411.0999999999,62.7585195216
65462.2999999999,62.7514299547
65564.6999999999,62.7372869540
65615.8999999999,62.7302269715
65718.2999999999,62.7161326114
65769.4999999999,62.7090926705
65871.8999999999,62.6950245179
65923.0999999999,62.6879923085
66025.4999999999,62.6739236351
66076.6999999999,62.6668854705
66179.0999999999,62.6527904927
66230.2999999999,62.6457349310
66332.6999999999,62.6315988428
66383.8999999999,62.6245224479
66486.2999999999,62.6103524239
66537.4999999999,62.6032640009
66639.8999999998,62.5890897538
66691.0999999998,62.5820070927
66793.4999999998,62.5678658230
66844.6999999998,62.5608064314
66947.0999999998,62.5467255985
66998.2999999998,62.5396998129
67100.6999999998,62.5256896602
67151.8999999998,62.5186989065
67254.2999999998,62.5047526795
67305.4999999998,62.4977904461
67407.8999999998,62.4838877411
67459.0999999998,62.4769416092
67561.4999999998,62.4630530526
67766.2999999998,62.4352125588
67868.6999999998,62.4212463937
68073.4999999998,62.3930998501
68175.8999999998,62.3789301649
68227.0999999998,62.3718181493
68329.4999999998,62.3575103812
68380.6999999998,62.3503249739
68483.0999999998,62.3358609917
68534.2999999998,62.3285950135
68636.6999999998,62.3139671681
68687.8999999998,62.3066195938
68790.2999999998,62.2918350501
68841.4999999998,62.2844130185
68943.8999999997,62.2694962335
68995.0999999997,62.2620154219
69097.4999999997,62.2470055123
69148.6999999997,62.2394874910
69251.0999999997,62.2244296561
69302.2999999997,62.2168967651
69404.6999999997,62.2018317019
69455.8999999997,62.1943022299
69558.2999999997,62.1792597233
69609.4999999997,62.1717462064
69711.8999999997,62.1567463810
69763.0999999997,62.1492578091
69865.4999999997,62.1343188021
69916.6999999997,62.1268650860
70019.0999999997,62.1120107064
70070.2999999997,62.1046050849
70172.6999999997,62.0898626233
70223.8999999997,62.0825177804
70326.2999999997,62.0679048195
70377.4999999997,62.0606256704
70479.8999999997,62.0461392819
70531.0999999997,62.0389198338
70633.4999999997,62.0245370983
70684.6999999996,62.0173626680
70787.0999999996,62.0030479475
70838.2999999996,61.9958991772
70940.6999999996,61.9816116971
70991.8999999996,61.9744679672
71094.2999999996,61.9601672638
71145.4999999996,61.9530089017
71247.8999999996,61.9386578423
71299.0999999996,61.9314671735
71401.4999999996,61.9170330829
71452.6999999996,61.9097947719
71555.0999999996,61.8952501325
71606.2999999996,61.8879517223
71708.6999999996,61.8732763286
71759.8999999996,61.8659097553
71862.2999999996,61.8510945451
71913.4999999996,61.8436580696
72015.8999999996,61.8287075915
72067.0999999996,61.8212061670
72169.4999999996,61.8061362193
72220.6999999996,61.7985792865
72323.0999999996,61.7834110114
72374.2999999996,61.7758095164
72476.6999999995,61.7605650838
72527.8999999995,61.7529301996
72630.2999999995,61.7376328050
72681.4999999995,61.7299766634
72783.8999999995,61.7146528427
72835.0999999995,61.7069896387
72937.4999999995,61.6916701580
72988.6999999995,61.6840158900
73091.0999999995,61.6687328118
73142.2999999995,61.6611029420
73244.6999999995,61.6458829520
73295.8999999995,61.6382885926
73398.2999999995,61.6231453689
73449.4999999995,61.6155898954
73551.8999999995,61.6005202169
73603.0999999995,61.5929987409
73705.4999999995,61.5779862482
73756.6999999995,61.5704892206
73859.0999999995,61.5555152603
73910.2999999995,61.5480345773
74012.6999999995,61.5330890977
74063.8999999995,61.5256222061
74166.2999999994,61.5107062120
74217.4999999994,61.5032552882
74319.8999999994,61.4883757293
74371.0999999994,61.4809447610
74473.4999999994,61.4661104197
74524.6999999994,61.4587041187
74627.0999999994,61.4439258716
74678.2999999994,61.4365503721
74780.6999999994,61.4218429538
74831.8999999994,61.4145065878
74934.2999999994,61.3998894188
74985.4999999994,61.3926028372
75087.8999999994,61.3780994336
75139.0999999994,61.3708750110
75241.4999999994,61.3565109212
75292.6999999994,61.3493614077
75395.0999999994,61.3351607171
75446.2999999994,61.3280972674
75548.6999999994,61.3140784530
75599.8999999994,61.3071086287
75702.2999999994,61.2932813531
75907.0999999994,61.2660654068
76009.4999999994,61.2526083057
76214.2999999994,61.2260741830
76316.6999999994,61.2129282454
76521.4999999994,61.1869049235
76623.8999999994,61.1739675366
76828.6999999994,61.1482065255
76931.0999999994,61.1353407762
77135.8999999994,61.1095561072
77238.2999999993,61.0966243529
77289.4999999993,61.0901458329
77391.8999999993,61.0771483322
77443.0999999993,61.0706344328
77545.4999999993,61.0575636854
77596.6999999993,61.0510134876
77699.0999999993,61.0378753484
77750.2999999993,61.0312943229
77852.6999999993,61.0181054514
77903.8999999993,61.0115034589
78006.2999999993,60.9982855680
78057.4999999993,60.9916735367
78159.8999999993,60.9784464887
78211.0999999993,60.9718331506
78313.4999999993,60.9586097688
78364.6999999993,60.9519996632
78467.0999999993,60.9387834453
78518.2999999993,60.9321763275
78620.6999999993,60.9189614835
78825.4999999993,60.8924925365
78927.8999999993,60.8792308988
79132.6999999993,60.8525733886
79235.0999999993,60.8391817986
79439.8999999993,60.8121686196
79542.2999999993,60.7985677484
79747.0999999993,60.7710589003
79849.4999999993,60.7571857295
80054.2999999993,60.7290786187
80156.6999999993,60.7148930693
80207.8999999993,60.7077676677
80310.2999999992,60.6934266857
80361.4999999992,60.6862247177
80463.8999999992,60.6717360988
80515.0999999992,60.6644628101
80617.4999999992,60.6498401633
80668.6999999992,60.6425033207
80771.0999999992,60.6277647446
80822.2999999992,60.6203744661
80924.6999999992,60.6055446672
80975.8999999992,60.5981154340
81078.2999999992,60.5832310067
81129.4999999992,60.5757839450
81231.8999999992,60.5608931814
81283.0999999992,60.5534535669
81385.4999999992,60.5386053015
81436.6999999992,60.5311957291
81539.0999999992,60.5164271580
81590.2999999992,60.5090630684
81692.6999999992,60.4943967342
81743.8999999992,60.4870867875
81846.2999999992,60.4725343964
81897.4999999992,60.4652828750
81999.8999999992,60.4508499793
82051.0999999991,60.4436588941
82153.4999999991,60.4293483488
82204.6999999991,60.4222189347
82307.0999999991,60.4080333117
82511.8999999991,60.3799561679
82614.2999999991,60.3660249356
82819.0999999991,60.3384534360
82921.4999999991,60.3247641724
83126.2999999991,60.2975948727
83228.6999999991,60.2840645621
83433.4999999991,60.2570727328
83535.8999999991,60.2435847678
83740.6999999991,60.2166017952
83843.0999999991,60.2031103500
84047.8999999991,60.1761553418
84150.2999999991,60.1626959457
84355.0999999991,60.1358285420
84457.4999999991,60.1224064336
84662.2999999991,60.0955360372
84764.6999999991,60.0820730060
84969.4999999991,60.0549957582
85071.8999999991,60.0413883020
85276.6999999991,60.0139563462
85379.0999999991,60.0001701680
85430.2999999991,59.9932633376
85532.6999999991,59.9794242738
85583.8999999991,59.9724998852
85686.2999999991,59.9586539037
85737.4999999991,59.9517362492
85839.8999999991,59.9379296558
85891.0999999991,59.9310396815
85993.4999999991,59.9173046738
86044.6999999991,59.9104545233
86147.0999999991,59.8968040994
86351.8999999991,59.8696815394
86454.2999999991,59.8561741213
86659.0999999991,59.8292623083
86761.4999999991,59.8158332196
86812.6999999991,59.8091243753
86915.0999999990,59.7957213909
86966.2999999990,59.7890252937
87068.6999999990,59.7756498740
87119.8999999990,59.7689689428
87222.2999999990,59.7556293337
87273.4999999990,59.7489684704
87375.8999999990,59.7356748219
87580.6999999990,59.7092060081
87683.0999999990,59.6960136611
87887.8999999990,59.6697180489
87990.2999999990,59.6565898645
88195.0999999990,59.6303220085
88297.4999999990,59.6171651457
88502.2999999990,59.5907120476
88604.6999999990,59.5774196765
88809.4999999990,59.5506124396
88911.8999999990,59.5371303185
88963.0999999990,59.5303719245
89065.4999999990,59.5168132725
89116.6999999990,59.5100212677
89219.0999999990,59.4964102077
89270.2999999990,59.4895972785
89372.6999999990,59.4759573126
89423.8999999990,59.4691337264
89526.2999999990,59.4554791602
89577.4999999990,59.4486495415
89679.8999999990,59.4349822708
89731.0999999990,59.4281450143
89833.4999999990,59.4144552598
89884.6999999989,59.4076033193
89987.0999999989,59.3938716691
90191.8999999989,59.3662266588
90294.2999999989,59.3523180621
90499.0999999989,59.3241834631
90601.4999999989,59.3099924532
90652.6999999989,59.3028667438
90755.0999999989,59.2885364505
90806.2999999989,59.2813459777
90908.6999999989,59.2669078758
90959.8999999989,59.2596727195
91062.2999999989,59.2451723293
91113.4999999989,59.2379149798
91215.8999999989,59.2233887321
91267.0999999989,59.2161227768
91369.4999999989,59.2015821748
91420.6999999989,59.1943078218
91523.0999999989,59.1797407603
91574.2999999989,59.1724487420
91676.6999999989,59.1578334822
91727.8999999989,59.1505133732
91830.2999999989,59.1358356607
91881.4999999989,59.1284837861
91983.8999999989,59.1137479899
92035.0999999989,59.1063707017
92137.4999999989,59.0915987804
92188.6999999988,59.0842093100
92291.0999999988,59.0694292866
92342.2999999988,59.0620409931
92444.6999999988,59.0472742943
92495.8999999988,59.0398954276
92598.2999999988,59.0251510134
92649.4999999988,59.0177834778
92751.8999999988,59.0030591845
92803.0999999988,58.9957001852
92905.4999999988,58.9809872569
92956.6999999988,58.9736316783
93059.0999999988,58.9589190293
93110.2999999988,58.9515612729
93212.6999999988,58.9368382078
93417.4999999988,58.9073380117
93519.8999999988,58.8925647668
93724.6999999988,58.8629409596
93827.0999999988,58.8480997712
94031.8999999988,58.8183245877
94134.2999999988,58.8033997088
94339.0999999988,58.7734074306
94441.4999999988,58.7583478665
94646.2999999988,58.7280037212
94748.6999999988,58.7127476787
94799.8999999988,58.7051001138
94902.2999999988,58.6897554375
94953.4999999988,58.6820674775
95055.8999999988,58.6666562088
95107.0999999988,58.6589405228
95209.4999999987,58.6434902082
95260.6999999987,58.6357609476
95363.0999999987,58.6203004424
95414.2999999987,58.6125722549
95516.6999999987,58.5971316976
95567.8999999987,58.5894199487
95670.2999999987,58.5740303483
95721.4999999987,58.5663503726
95823.8999999987,58.5510405523
96028.6999999987,58.5206536403
96131.0999999987,58.5055534911
96335.8999999987,58.4756234140
96438.2999999987,58.4607543847
96643.0999999987,58.4312701460
96745.4999999987,58.4166145490
96950.2999999987,58.3875183217
97052.6999999987,58.3730373708
97257.4999999987,58.3442035156
97359.8999999987,58.3298135952
97411.0999999987,58.3226223339
97513.4999999987,58.3082411768
97564.6999999987,58.3010493066
97667.0999999987,58.2866576566
97718.2999999987,58.2794589153
97820.6999999987,58.2650564562
97871.8999999987,58.2578553777
97974.2999999987,58.2434632765
98025.4999999987,58.2362739775
98127.8999999987,58.2219260014
98179.0999999987,58.2147660906
98281.4999999986,58.2004953156
98332.6999999986,58.1933796602
98435.0999999986,58.1792085917
98486.2999999986,58.1721453261
98588.6999999986,58.1580800895
98793.4999999986,58.1301496987
98895.8999999986,58.1162366087
99100.6999999986,58.0884520908
99203.0999999986,58.0745445183
99407.8999999986,58.0465721834
99510.2999999986,58.0325036059
99715.0999999986,58.0040562193
99817.4999999986,57.9897074173
100022.2999999986,57.9606189301
100124.6999999986,57.9459279404
100329.4999999986,57.9161029510
100431.8999999986,57.9010246369
100636.6999999986,57.8703713117
100739.0999999986,57.8548643259
100790.2999999986,57.8470669513
100892.6999999986,57.8313522846
100943.8999999986,57.8234536427
101046.2999999986,57.8075479468
101097.4999999986,57.7995590040
101199.8999999986,57.7834913583
101251.0999999986,57.7754291362
101353.4999999986,57.7592400454
101404.6999999986,57.7511268658
101507.0999999986,57.7348651872
101558.2999999986,57.7267264171
101660.6999999986,57.7104430272
101711.8999999986,57.7023035009
101814.2999999985,57.6860443313
101865.4999999985,57.6779252753
101967.8999999985,57.6617270415
102019.0999999985,57.6536446578
102121.4999999985,57.6375337267
102172.6999999985,57.6294991020
102275.0999999985,57.6134921697
102326.2999999985,57.6055118291
102428.6999999985,57.5896174483
102479.8999999985,57.5816942506
102582.2999999985,57.5659150017
102633.4999999985,57.5580493730
102735.8999999985,57.5423848027
102787.0999999985,57.5345763807
102889.4999999985,57.5190267118
102940.6999999985,57.5112762953
103043.0999999985,57.4958461731
103094.2999999985,57.4881573832
103196.6999999985,57.4728578940
103247.8999999985,57.4652375335
103350.2999999985,57.4500846310
103401.4999999985,57.4425410493
103503.8999999985,57.4275503439
103555.0999999984,57.4200903751
103657.4999999984,57.4052709376
103862.2999999984,57.3760200895
103964.6999999984,57.3615247087
104169.4999999984,57.3328388350
104271.8999999984,57.3185847845
104476.6999999984,57.2902378696
104579.0999999984,57.2760983533
104783.8999999984,57.2478298095
104886.2999999984,57.2336795912
105091.0999999984,57.2052673194
105193.4999999984,57.1910045983
105398.2999999984,57.1622519923
105500.6999999984,57.1477751099
105705.4999999984,57.1184602936
105807.8999999984,57.1036547148
106012.6999999984,57.0735692482
106115.0999999984,57.0583474606
106319.8999999984,57.0273785461
106422.2999999984,57.0117038392
106627.0999999984,56.9798047389
106729.4999999984,56.9636554653
106780.6999999984,56.9555311307
106883.0999999984,56.9391411183
106934.2999999984,56.9308955435
107036.6999999984,56.9142634288
107087.8999999984,56.9058980650
107190.2999999984,56.8890355855
107241.4999999984,56.8805600735
107343.8999999984,56.8634982670
107395.0999999984,56.8549323238
107497.4999999984,56.8377211539
107548.6999999984,56.8290929899
107651.0999999984,56.8117954989
107702.2999999984,56.8031383217
107804.6999999984,56.7858230836
107855.8999999983,56.7771712487
107958.2999999983,56.7599043702
108009.4999999983,56.7512892226
108111.8999999983,56.7341256766
108163.0999999983,56.7255712290
108265.4999999983,56.7085471905
108316.6999999983,56.7000669533
108419.0999999983,56.6831966232
108470.2999999983,56.6747934924
108572.6999999983,56.6580740548
108623.8999999983,56.6497447329
108726.2999999983,56.6331692866
108777.4999999983,56.6249113436
108879.8999999983,56.6084799128
108931.0999999983,56.6002950462
109033.4999999983,56.5840139735
109084.6999999983,56.5759058908
109187.0999999983,56.5597827314
109238.2999999983,56.5517548832
109340.6999999983,56.5357930500
109545.4999999983,56.5042010490
109647.8999999983,56.4885003174
109852.6999999983,56.4572320400
109955.0999999983,56.4416068621
110159.8999999983,56.4102428630
110262.2999999983,56.3944899734
110467.0999999983,56.3626929514
110569.4999999983,56.3466711371
110774.2999999983,56.3141899333
110876.6999999983,56.2977608491
110927.8999999982,56.2894924044
111030.2999999982,56.2727810477
111081.4999999982,56.2643572086
111183.8999999982,56.2472995940
111235.0999999982,56.2386931588
111337.4999999982,56.2212647017
111388.6999999982,56.2124779225
111491.0999999982,56.1947293795
111542.2999999982,56.1858023491
111644.6999999982,56.1678358546
111695.8999999982,56.1588211446
111798.2999999982,56.1407271411
111849.4999999982,56.1316618881
111951.8999999982,56.1134903444
112003.0999999982,56.1043917010
112105.4999999982,56.0861602995
112156.6999999982,56.0770326889
112259.0999999982,56.0587433876
112310.2999999982,56.0495867545
112412.6999999982,56.0312415748
112463.8999999982,56.0220589036
112566.2999999982,56.0036727443
112617.4999999982,55.9944752095
112719.8999999981,55.9760809942
112771.0999999981,55.9668884506
112873.4999999981,55.9485324005
112924.6999999981,55.9393692178
113027.0999999981,55.9210988526
113078.2999999981,55.9119870805
113180.6999999981,55.8938376856
113231.8999999981,55.8847911345
113334.2999999981,55.8667793168
113385.4999999981,55.8578028256
113487.8999999981,55.8399320150
113539.0999999981,55.8310260871
113641.4999999981,55.8132967776
113692.6999999981,55.8044617888
113795.0999999981,55.7868743465
113846.2999999981,55.7781098539
113948.6999999981,55.7606597426
113999.8999999981,55.7519618356
114102.2999999981,55.7346363436
114153.4999999981,55.7259970303
114255.8999999981,55.7087763648
114307.0999999981,55.7001846034
114409.4999999981,55.6830440540
114460.6999999980,55.6744866559
114563.0999999980,55.6573977095
114614.2999999980,55.6488597057
114716.6999999980,55.6317906652
114767.8999999980,55.6232556832
114870.2999999980,55.6061728452
114921.4999999980,55.5976238538
115023.8999999980,55.5804932483
115075.0999999980,55.5719134417
115177.4999999980,55.5547023898
115228.6999999980,55.5460758551
115331.0999999980,55.5287540097
115382.2999999980,55.5200661660
115484.6999999980,55.5026061793
115535.8999999980,55.4938439996
115638.2999999980,55.4762213538
115689.4999999980,55.4673729820
115791.8999999980,55.4495643282
115843.0999999980,55.4406180040
115945.4999999980,55.4225989056
115996.6999999980,55.4135419614
116099.0999999980,55.3952854560
116150.2999999980,55.3861037291
116252.6999999979,55.3675788479
116303.8999999979,55.3582557175
116406.2999999979,55.3394260797
116457.4999999979,55.3299428796
116559.8999999979,55.3107775050
116611.0999999979,55.3011245799
116713.4999999979,55.2816384486
116764.6999999979,55.2718396472
116867.0999999979,55.2521287712
116918.2999999979,55.2422456994
117020.6999999979,55.2224443052
117071.8999999979,55.2125403896
117174.2999999979,55.1927465532
117225.4999999979,55.1828588793
117327.8999999979,55.1631176811
117379.0999999979,55.1532607618
117481.4999999979,55.1335874586
117532.6999999979,55.1237657066
117635.0999999979,55.1041632851
117686.2999999979,55.0943764283
117788.6999999979,55.0748397164
117839.8999999979,55.0650836419
117942.2999999978,55.0456011374
117993.4999999978,55.0358692779
118095.8999999978,55.0164267176
118147.0999999978,55.0067117247
118249.4999999978,54.9872937852
118300.6999999978,54.9775876486
118403.0999999978,54.9581766616
118454.2999999978,54.9484698195
118556.6999999978,54.9290444510
118607.8999999978,54.9193254993
118710.2999999978,54.8998613572
118761.4999999978,54.8901176979
118863.8999999978,54.8705890550
118915.0999999978,54.8608077698
119017.4999999978,54.8411890458
119068.6999999978,54.8313575383
119171.0999999978,54.8116245522
119222.2999999978,54.8017312504
119324.6999999978,54.7818630033
119375.8999999978,54.7718983504
119478.2999999978,54.7518787644
119529.4999999978,54.7418358075
119631.8999999978,54.7216534666
119683.0999999978,54.7115271309
119785.4999999977,54.6911724796
119836.6999999977,54.6809579342
119939.0999999977,54.6604208424
119990.2999999977,54.6501130181
120092.6999999977,54.6293851632
120143.8999999977,54.6189812630
120246.2999999977,54.5980638843
120297.4999999977,54.5875676271
120399.8999999977,54.5664776865
120451.0999999977,54.5559006823
120553.4999999977,54.5346673336
120604.6999999977,54.5240253845
120707.0999999977,54.5026815200
120758.2999999977,54.4919915558
120860.6999999977,54.4705753931
120911.8999999977,54.4598593034
121014.2999999977,54.4384264188
121065.4999999977,54.4277165307
121167.8999999977,54.4063404445
121219.0999999977,54.3956744814
121321.4999999977,54.3744224703
121372.6999999977,54.3638283789
121475.0999999976,54.3427337102
121526.2999999976,54.3322193913
121628.6999999976,54.3112753067
121679.8999999976,54.3008304907
121782.2999999976,54.2800025412
121833.4999999976,54.2696064586
121935.8999999976,54.2488477614
121987.0999999976,54.2384761369
122089.4999999976,54.2177393509
122140.6999999976,54.2073698762
122243.0999999976,54.1866176638
122294.2999999976,54.1762351670
122396.6999999976,54.1554496830
122447.8999999976,54.1450501152
122550.2999999976,54.1242364693
122601.4999999976,54.1138264350
122703.8999999976,54.0930045671
122755.0999999976,54.0825948540
122857.4999999976,54.0617822510
122908.6999999976,54.0513785755
123011.0999999976,54.0305739147
123062.2999999976,54.0201704356
123164.6999999976,53.9993477306
123215.8999999975,53.9889269697
123318.2999999975,53.9680430164
123369.4999999975,53.9575818524
123471.8999999975,53.9365915555
123523.0999999975,53.9260690445
123625.4999999975,53.9049374261
123676.6999999975,53.8943386549
123779.0999999975,53.8730417231
123830.2999999975,53.8623562914
123932.6999999975,53.8408766582
123983.8999999975,53.8300971369
124086.2999999975,53.8084242997
124137.4999999975,53.7975470566
124239.8999999975,53.7756766356
124291.0999999975,53.7646996833
124393.4999999975,53.7426252636
124444.6999999975,53.7315441429
124547.0999999975,53.7092546799
124598.2999999975,53.6980639715
124700.6999999975,53.6755529187
124751.8999999975,53.6642518145
124854.2999999975,53.6415267062
124905.4999999975,53.6301225063
125007.8999999974,53.6072075499
125059.0999999974,53.5957154698
125161.4999999974,53.5726479571
125212.6999999974,53.5610885482
125315.0999999974,53.5379132413
125366.2999999974,53.5263098946
125468.6999999974,53.5030759920
125519.8999999974,53.4914541291
125622.2999999974,53.4682143303
125673.4999999974,53.4566006512
125775.8999999974,53.4334070740
125827.0999999974,53.4218263627
125929.4999999974,53.3987215659
125980.6999999974,53.3871917480
126083.0999999974,53.3641998537
126134.2999999974,53.3527284485
126236.6999999974,53.3298515305
126287.8999999974,53.3184350946
126390.2999999974,53.2956548305
126441.4999999974,53.2842805286
126543.8999999974,53.2615628434
126595.0999999974,53.2502112685
126697.4999999974,53.2275135816
126748.6999999973,53.2161629732
126851.0999999973,53.1934436457
126902.2999999973,53.1820745261
127004.6999999973,53.1592992795
127055.8999999973,53.1478959501
127158.2999999973,53.1250349092
127209.4999999973,53.1135821093
127311.8999999973,53.0906009572
127363.0999999973,53.0790796737
127465.4999999973,53.0559348659
127516.6999999973,53.0443216402
127619.0999999973,53.0209640305
127670.2999999973,53.0092344534
127772.6999999973,52.9856202830
127823.8999999973,52.9737556420
127926.2999999973,52.9498613469
127977.4999999973,52.9378559233
128079.8999999973,52.9136894614
128131.0999999973,52.9015542823
128233.4999999973,52.8771556793
128284.6999999973,52.8649162750
128387.0999999973,52.8403474393
128438.2999999973,52.8280372104
128540.6999999972,52.8033660783
128591.8999999972,52.7910178838
128694.2999999972,52.7663023730
128745.4999999972,52.7539414964
128847.8999999972,52.7292204504
128899.0999999972,52.7168621121
129001.4999999972,52.6921550608
129052.6999999972,52.6798054489
129155.0999999972,52.6551159248
129206.2999999972,52.6427739501
129308.6999999972,52.6180927626
129359.8999999972,52.6057515866
129462.2999999972,52.5810596634
129513.4999999972,52.5687080893
129615.8999999972,52.5439795435
129667.0999999972,52.5316038072
129769.4999999972,52.5068111293
129820.6999999972,52.4943983196
129923.0999999972,52.4695219927
129974.2999999972,52.4570656640
130076.6999999972,52.4321047406
130127.8999999972,52.4196087063
130230.2999999972,52.3945789933
130281.4999999971,52.3820522210
130383.8999999971,52.3569660877
130435.0999999971,52.3444106488
130537.4999999971,52.3192552243
130588.6999999971,52.3066578385
130691.0999999971,52.2813871250
130742.2999999971,52.2687183327
130844.6999999971,52.2432594557
130895.8999999971,52.2304796391
130998.2999999971,52.2047546138
131049.4999999971,52.1918287106
131151.8999999971,52.1657934051
131203.0999999971,52.1527124510
131305.4999999971,52.1263961759
131356.6999999971,52.1131929283
131459.0999999971,52.0867084357
131510.2999999971,52.0734531956
131612.6999999971,52.0469616772
131663.8999999971,52.0337364422
131766.2999999971,52.0073839237
131817.4999999971,51.9942507917
131919.8999999971,51.9681236938
131971.0999999972,51.9551130598
132073.4999999971,51.9292473370
132124.6999999972,51.9163720937
132227.0999999972,51.8907894708
132278.2999999972,51.8780594926
132380.6999999972,51.8527690308
132431.8999999972,51.8401817369
132534.2999999972,51.8151487534
132585.4999999972,51.8026752412
132687.8999999972,51.7778119200
132739.0999999972,51.7653991085
132841.4999999972,51.7405803422
132892.6999999972,51.7281607066
132995.0999999972,51.7032437992
133046.2999999972,51.6907449756
133148.6999999972,51.6655892736
133199.8999999972,51.6529443948
133302.2999999972,51.6274333349
133353.4999999972,51.6145919713
133455.8999999972,51.5886506313
133507.0999999972,51.5755849263
133609.4999999972,51.5491836882
133660.6999999972,51.5358878336
133763.0999999972,51.5090404051
133814.2999999972,51.4955305526
133916.6999999972,51.4682949533
133967.8999999972,51.4546082124
134070.2999999972,51.4270723282
134121.4999999972,51.4132544334
134223.8999999972,51.3855043177
134275.0999999972,51.3715944652
134377.4999999972,51.3436944033
134428.6999999972,51.3297193713
134531.0999999972,51.3017075596
134582.2999999973,51.2876809856
134684.6999999972,51.2595703084
134735.8999999973,51.2454939675
134838.2999999973,51.2172774507
134889.4999999973,51.2031448113
134991.8999999973,51.1748029493
135043.0999999973,51.1606022866
135145.4999999973,51.1321063096
135196.6999999973,51.1178212480
135299.0999999973,51.0891324405
135350.2999999973,51.0747415221
135452.6999999973,51.0458120692
135503.8999999973,51.0312901176
135606.2999999973,51.0020684901
135657.4999999973,50.9873899981
135759.8999999973,50.9578282291
135811.0999999973,50.9429708252
135913.4999999973,50.9130302556
135964.6999999973,50.8979771514
136067.0999999973,50.8676327274
136118.2999999973,50.8523748976
136220.6999999973,50.8216206456
136271.8999999973,50.8061602085
136374.2999999973,50.7750182384
136425.4999999973,50.7593735718
136527.8999999973,50.7279031421
136579.0999999973,50.7121116606
136681.4999999973,50.6804041175
136732.6999999973,50.6645150362
136835.0999999973,50.6326683589
136886.2999999973,50.6167279805
136988.6999999973,50.5848209698
137039.8999999973,50.5688629483
137142.2999999973,50.5369467148
137193.4999999974,50.5209912423
137295.8999999973,50.4890936065
137347.0999999974,50.4731508309
137449.4999999974,50.4412842158
137500.6999999974,50.4253581972
137603.0999999974,50.3935267691
137654.2999999974,50.3776186034
137756.6999999974,50.3458226954
137807.8999999974,50.3299319751
137910.2999999974,50.2981690713
137961.4999999974,50.2822938487
138063.8999999974,50.2505577619
138115.0999999974,50.2346939987
138217.4999999974,50.2029733688
138268.6999999974,50.1871140176
138371.0999999974,50.1553902676
138422.2999999974,50.1395243682
138524.6999999974,50.1077709456
138575.8999999974,50.0918836305
138678.2999999974,50.0600662629
138729.4999999974,50.0441387319
138831.8999999974,50.0122157714
138883.0999999974,49.9962264161
138985.4999999974,49.9641577118
139036.6999999974,49.9480893926
139139.0999999974,49.9158545691
139190.2999999974,49.8997025725
139292.6999999974,49.8673035073
139343.8999999974,49.8510706462
139446.2999999974,49.8185095814
139497.4999999974,49.8021942407
139599.8999999974,49.7694608550
139651.0999999974,49.7530570170
139753.4999999974,49.7201482157
139804.6999999975,49.7036610131
139907.0999999974,49.6706158032
139958.2999999975,49.6540757086
140060.6999999975,49.6209759056
140111.8999999975,49.6044260444
140214.2999999975,49.5713413385
140265.4999999975,49.5548057889
140367.8999999975,49.5217464691
140419.0999999975,49.5052170333
140521.4999999975,49.4721350107
140572.6999999975,49.4555781485
140675.0999999975,49.4223856791
140726.2999999975,49.4057515386
140828.6999999975,49.3723371742
140879.8999999975,49.3555672951
140982.2999999975,49.3218125415
141033.4999999975,49.3048488766
141135.8999999975,49.2706474754
141187.0999999975,49.2534418950
141289.4999999975,49.2187149280
141340.6999999975,49.2012344586
141443.0999999975,49.1659340246
141494.2999999975,49.1481613703
141596.6999999975,49.1122742210
141647.8999999975,49.0942109674
141750.2999999975,49.0577589329
141801.4999999975,49.0394192428
141903.8999999975,49.0024214490
141955.0999999975,48.9838074785
142057.4999999975,48.9462452064
142108.6999999975,48.9273427762
142211.0999999975,48.8892021819
142262.2999999975,48.8700186704
142364.6999999975,48.8313811081
142415.8999999975,48.8119829587
142518.2999999975,48.7730339075
142569.4999999976,48.7535230234
142671.8999999975,48.7144551372
142723.0999999976,48.6949167960
142825.4999999976,48.6558578104
142876.6999999976,48.6363398973
142979.0999999976,48.5973432309
143030.2999999976,48.5778586706
143132.6999999976,48.5389188496
143183.8999999976,48.5194563095
143286.2999999976,48.4805377119
143337.4999999976,48.4610777893
143439.8999999976,48.4221475297
143491.0999999976,48.4026783625
143593.4999999976,48.3637335856
143644.6999999976,48.3442626891
143747.0999999976,48.3053428890
143798.2999999976,48.2858963494
143900.6999999976,48.2470536609
143951.8999999976,48.2276516422
144054.2999999976,48.1888900624
144105.4999999976,48.1695178543
144207.8999999976,48.1307557524
144259.0999999976,48.1113547332
144361.4999999976,48.0724378447
144412.6999999976,48.0529234073
144515.0999999976,48.0136864400
144566.2999999976,47.9939825266
144668.6999999976,47.9542951299
144719.8999999976,47.9343418885
144822.2999999976,47.8940911139
144873.4999999976,47.8738355501
144975.8999999976,47.8329472674
145027.0999999976,47.8123717259
145129.4999999976,47.7708866279
145180.6999999977,47.7500379275
145283.0999999976,47.7080846582
145334.2999999977,47.6870240284
145436.6999999977,47.6446667891
145487.8999999977,47.6233997752
145590.2999999977,47.5805900511
145641.4999999977,47.5590803941
145743.8999999977,47.5157486236
145795.0999999977,47.4939692368
145897.4999999977,47.4500903661
145948.6999999977,47.4280386286
146051.0999999977,47.3836337087
146102.2999999977,47.3613304222
146204.6999999977,47.3164749963
146255.8999999977,47.2939700243
146358.2999999977,47.2487891358
146409.4999999977,47.2261500860
146511.8999999977,47.1807710954
146563.0999999977,47.1580510227
146665.4999999977,47.1125168903
146716.6999999977,47.0897077115
146819.0999999977,47.0439127411
146870.2999999977,47.0209333511
146972.6999999977,46.9746670444
147023.8999999977,46.9514054256
147126.2999999977,46.9044642497
147177.4999999977,46.8808347410
147279.8999999977,46.8331108064
147331.0999999977,46.8090820842
147433.4999999977,46.7605555026
147484.6999999977,46.7361237277
147587.0999999977,46.6867685189
147638.2999999977,46.6619072915
147740.6999999977,46.6116270492
147791.8999999978,46.5862763962
147894.2999999977,46.5349515605
147945.4999999978,46.5090640590
148047.8999999978,46.4566759937
148099.0999999978,46.4302754554
148201.4999999978,46.3769561758
148252.6999999978,46.3501310092
148355.0999999978,46.2960896411
148406.2999999978,46.2689495338
148508.6999999978,46.2143992151
148559.8999999978,46.1870428462
148662.2999999978,46.1321391293
148713.4999999978,46.1046258014
148815.8999999978,46.0494332750
148867.0999999978,46.0217775945
148969.4999999978,45.9662900427
149020.6999999978,45.9384819903
149123.0999999978,45.8826883279
149174.2999999978,45.8547320573
149276.6999999978,45.7986596702
149327.8999999978,45.7705653775
149430.2999999978,45.7141993395
149481.4999999978,45.6859525134
149583.8999999978,45.6292692505
149635.0999999978,45.6008477324
149737.4999999978,45.5436444764
149788.6999999978,45.5148554162
149891.0999999978,45.4564361919
149942.2999999978,45.4268270311
150044.6999999978,45.3660946964
150095.8999999978,45.3351083963
150198.2999999978,45.2713465230
150249.4999999978,45.2388853775
150351.8999999978,45.1726275598
150403.0999999979,45.1390834463
150505.4999999978,45.0709498465
150556.6999999979,45.0365479888
150659.0999999979,44.9670955421
150710.2999999979,44.9322619338
150812.6999999979,44.8627516694
150863.8999999979,44.8281304951
150966.2999999979,44.7592816435
151017.4999999979,44.7249475933
151119.8999999979,44.6561785788
151171.0999999979,44.6216354711
151273.4999999979,44.5515438621
151324.6999999979,44.5159782562
151427.0999999979,44.4428603661
151478.2999999979,44.4055488834
151580.6999999979,44.3291245908
151631.8999999979,44.2903952952
151734.2999999979,44.2117397531
151785.4999999979,44.1720107883
151887.8999999979,44.0914806493
151939.0999999979,44.0508441491
152041.4999999979,43.9685019132
152092.6999999979,43.9269246779
152118.2999999979,43.9060282631
152169.4999999979,43.8639128579
152195.0999999979,43.8427339276
152246.2999999980,43.8000057999
152271.8999999980,43.7784995681
152323.0999999980,43.7350398480
152348.6999999980,43.7131351411
152399.8999999980,43.6687687685
152425.4999999980,43.6463675962
152476.6999999980,43.6008769077
152502.2999999980,43.5778656920
152553.4999999980,43.5310264422
152579.0999999980,43.5073001285
152630.2999999980,43.4589489806
152655.8999999980,43.4344486280
152707.0999999981,43.3845336511
152732.6999999981,43.3592502274
152783.8999999981,43.3077568460
152809.4999999981,43.2816731688
152860.6999999981,43.2285204907
152886.2999999981,43.2015805405
152937.4999999981,43.1466322979
152963.0999999981,43.1187674213
153014.2999999981,43.0619260166
153039.8999999981,43.0331131088
153091.0999999981,42.9744247502
153116.6999999981,42.9447123767
153167.8999999982,42.8842538696
153193.4999999982,42.8536414399
153244.6999999982,42.7912219314
153270.2999999982,42.7595437175
153321.4999999982,42.6946789274
153347.0999999982,42.6616491716
153398.2999999982,42.5936453903
153423.8999999982,42.5588721552
153475.0999999982,42.4868563533
153500.6999999982,42.4498928363
153551.8999999982,42.3730354573
153577.4999999983,42.3335203853
153628.6999999983,42.2513930826
153654.2999999983,42.2092382446
153705.4999999983,42.1219052484
153731.0999999983,42.0771553734
153782.2999999983,41.9843724300
153807.8999999983,41.9366455690
153859.0999999983,41.8360740304
153884.6999999983,41.7834184116
153935.8999999983,41.6689425990
153961.4999999983,41.6077598309
153974.2999999983,41.5760484863
153999.8999999983,41.5090410710
154012.6999999983,41.4741319130
154038.2999999983,41.3998042376
154051.0999999983,41.3608497120
154076.6999999983,41.2768829607
154089.4999999983,41.2323618474
154115.0999999983,41.1340705692
154127.8999999983,41.0808650928
154153.4999999983,40.9580198764
154166.2999999983,40.8882327107
154191.8999999983,40.6881870687
154204.6999999983,40.6579686616
154207.8999999983,40.6246501798
154214.2999999983,40.5376260881
154227.0999999983,40.4796676383
154230.2999999983,40.3907078894
154236.6999999983,40.0464130120
154239.8999999983,39.9177694907
154246.2999999983,39.7772717332
154259.0999999983,39.6364334114
154284.6999999983,39.4927980063
154335.8999999983,39.3392829869
154438.2999999983,39.1719793359
154489.4999999983,39.1115611828
154591.8999999983,39.0244700363
154643.0999999983,38.9890020579
154745.4999999983,38.9322564010
154796.6999999983,38.9075184430
154899.0999999983,38.8646413694
154950.2999999983,38.8449040292
155052.6999999983,38.8084861052
155103.8999999983,38.7910502863
155206.2999999983,38.7575079228
155257.4999999983,38.7410562408
155359.8999999983,38.7086484336
155411.0999999983,38.6925502330
155513.4999999983,38.6604763991
155564.6999999984,38.6444541011
155667.0999999983,38.6123775688
155718.2999999984,38.5963136952
155820.6999999984,38.5640618576
155871.8999999984,38.5478775902
155974.2999999984,38.5152878065
156025.4999999984,38.4989001296
156127.8999999984,38.4658218032
156179.0999999984,38.4491680054
156281.4999999984,38.4155332660
156332.6999999984,38.3986044416
156435.0999999984,38.3644790767
156486.2999999984,38.3473387442
156588.6999999984,38.3129062473
156639.8999999984,38.2956501380
156742.2999999984,38.2610535217
156793.4999999984,38.2437291128
156895.8999999984,38.2090144851
156947.0999999984,38.1916354388
157049.4999999984,38.1568166341
157100.6999999984,38.1393848092
157203.0999999984,38.1044515597
157254.2999999984,38.0869584449
157356.6999999984,38.0518868939
157407.8999999984,38.0343158294
157510.2999999984,37.9990406698
157561.4999999984,37.9813426772
157663.8999999984,37.9457118932
157715.0999999984,37.9277923039
157817.4999999984,37.8915733482
157868.6999999984,37.8733035675
157971.0999999984,37.8362187566
158022.2999999984,37.8174576457
158124.6999999984,37.7792421608
158175.8999999985,37.7598697099
158278.2999999984,37.7203302999
158329.4999999985,37.7002666549
158431.8999999985,37.6592872558
158483.0999999985,37.6384914322
158585.4999999985,37.5960589115
158636.6999999985,37.5745555900
158739.0999999985,37.5308152590
158790.2999999985,37.5087060243
158892.6999999985,37.4639013054
158943.8999999985,37.4413121913
159046.2999999985,37.3956932498
159097.4999999985,37.3727510642
159199.8999999985,37.3265936552
159251.0999999985,37.3034453653
159353.4999999985,37.2570395829
159404.6999999985,37.2338132047
159507.0999999985,37.1873075345
159558.2999999985,37.1640310394
159660.6999999985,37.1173709310
159711.8999999985,37.0939927048
159814.2999999985,37.0470742162
159865.4999999985,37.0235551754
159967.8999999985,36.9763440674
160019.0999999985,36.9526751540
160121.4999999985,36.9051295955
160172.6999999985,36.8812656296
160275.0999999985,36.8331593911
160326.2999999985,36.8089265332
160428.6999999985,36.7597538804
160479.8999999985,36.7348597529
160582.2999999985,36.6840153042
160633.4999999985,36.6581777358
160735.8999999985,36.6052689772
160787.0999999986,36.5783803581
160889.4999999985,36.5234902049
160940.6999999986,36.4956914000
161043.0999999986,36.4392768783
161094.2999999986,36.4108212988
161196.6999999986,36.3533226971
161247.8999999986,36.3243763831
161350.2999999986,36.2659018306
161401.4999999986,36.2364355285
161503.8999999986,36.1767539962
161555.0999999986,36.1466219713
161657.4999999986,36.0854821105
161708.6999999986,36.0545935334
161811.0999999986,35.9918766969
161862.2999999986,35.9601650754
161964.6999999986,35.8956726177
162015.8999999986,35.8630363811
162041.4999999986,35.8466214029
162092.6999999986,35.8135245173
162118.2999999986,35.7968825564
162169.4999999986,35.7633400621
162195.0999999986,35.7464761596
162246.2999999986,35.7124744492
162271.8999999987,35.6953684143
162323.0999999987,35.6608128618
162348.6999999987,35.6433950440
162399.8999999987,35.6080832033
162425.4999999987,35.5902329369
162476.6999999987,35.5538957627
162502.2999999987,35.5354794607
162553.4999999987,35.4979052884
162579.0999999987,35.4788520015
162630.2999999987,35.4400398869
162655.8999999987,35.4204031282
162707.0999999988,35.3805784956
162732.6999999988,35.3604946654
162783.8999999988,35.3199153672
162809.4999999988,35.2994900198
162860.6999999988,35.2582659831
162886.2999999988,35.2375153146
162937.4999999988,35.1955777931
162963.0999999988,35.1744358687
163014.2999999988,35.1315864041
163039.8999999988,35.1099369433
163091.0999999988,35.0659195348
163116.6999999988,35.0436319730
163167.8999999989,34.9981956914
163193.4999999989,34.9751521060
163244.6999999989,34.9280958261
163270.2999999989,34.9042109607
163321.4999999989,34.8554084677
163347.0999999989,34.8306307438
163398.2999999989,34.7799701639
163423.8999999989,34.7542249334
163475.0999999989,34.7014486207
163500.6999999989,34.6745626236
163551.8999999989,34.6192566989
163577.4999999990,34.5910388081
163628.6999999990,34.5330686311
163654.2999999990,34.5035756895
163705.4999999990,34.4433178619
163731.0999999990,34.4127594904
163782.2999999990,34.3504018106
163807.8999999990,34.3187437353
163859.0999999990,34.2538637984
163884.6999999990,34.2207991314
163935.8999999990,34.1526484455
163961.4999999990,34.1177823189
164012.6999999991,34.0455614632
164038.2999999991,34.0084907859
164089.4999999991,33.9313409336
164115.0999999991,33.8916180710
164166.2999999991,33.8086701381
164191.8999999991,33.7658251499
164243.0999999991,33.6753412154
164268.6999999991,33.6280505779
164319.8999999991,33.5263978815
164345.4999999991,33.4727644484
164396.6999999991,33.3563307489
164422.2999999991,33.2944386646
164435.0999999991,33.2624897602
164460.6999999991,33.1954018710
164473.4999999991,33.1605725983
164499.0999999991,33.0864705328
164511.8999999991,33.0475724083
164537.4999999991,32.9635026263
164550.2999999991,32.9189313637
164575.8999999991,32.8210859835
164588.6999999991,32.7684337895
164614.2999999991,32.6474727628
164627.0999999991,32.5785745349
164652.6999999991,32.3778656452
164665.4999999991,32.3473572505
164668.6999999991,32.3136004684
164675.0999999991,32.2239273249
164687.8999999991,32.1628379156
164691.0999999991,32.0659841963
164697.4999999991,31.7203375850
164700.6999999991,31.5953052586
164707.0999999991,31.4578659897
164719.8999999991,31.3191144275
164745.4999999991,31.1780054716
164796.6999999991,31.0292041591
164899.0999999991,30.8690229128
164950.2999999991,30.8114210539
165052.6999999991,30.7295031016
165103.8999999991,30.6968599653
165206.2999999991,30.6475139171
165411.0999999991,30.5868511200
165513.4999999991,30.5656331906
165718.2999999991,30.5387996757
165820.6999999991,30.5292770181
166025.4999999991,30.5170760567
166127.8999999991,30.5127027618
166332.6999999991,30.5070119690
166435.0999999990,30.5049394999
166639.8999999990,30.5021630086
166742.2999999990,30.5011207491
166947.0999999990,30.4996477640
167356.6999999990,30.4978714529
167561.4999999990,30.4972008673
167971.0999999990,30.4961189482
168175.8999999990,30.4956255821
168585.4999999990,30.4946986007
168790.2999999990,30.4942482951
169199.8999999990,30.4933756136
169404.6999999990,30.4929491929
169814.2999999990,30.4921268512
170019.0999999990,30.4917274032
170428.6999999990,30.4909632654
170633.4999999990,30.4905938733
171043.0999999990,30.4898902932
171247.8999999990,30.4895508531
171657.4999999990,30.4889051159
171862.2999999990,30.4885937011
172271.8999999990,30.4880014489
172476.6999999990,30.4877159283
172886.2999999990,30.4871735764
173091.0999999990,30.4869124732
173500.6999999990,30.4864179448
173705.4999999990,30.4861804813
174115.0999999990,30.4857326024
174319.8999999989,30.4855182226
174729.4999999990,30.4851156028
174934.2999999989,30.4849234367
175343.8999999989,30.4845636932
175548.6999999989,30.4843923092
175958.2999999989,30.4840719759
176163.0999999989,30.4839194610
176572.6999999989,30.4836343771
176777.4999999989,30.4834985774
177187.0999999989,30.4832443881
177391.8999999989,30.4831231450
177801.4999999989,30.4828956869
178006.2999999989,30.4827869937
178415.8999999989,30.4825825103
178620.6999999989,30.4824845881
179030.2999999989,30.4822998097
179235.0999999989,30.4822111265
179644.6999999989,30.4820432669
179849.4999999989,30.4819625252
180259.0999999989,30.4818092390
180463.8999999989,30.4817353501
180873.4999999989,30.4815946750
181078.2999999989,30.4815267293
181487.8999999989,30.4813970272
181692.6999999989,30.4813342657
182102.2999999989,30.4812141692
182307.0999999989,30.4811559579
182716.6999999989,30.4810443235
182921.4999999989,30.4809901316
183331.0999999989,30.4808860001
183535.8999999989,30.4808353816
183945.4999999989,30.4807379449
184150.2999999989,30.4806905234
184559.8999999989,30.4805990972
184764.6999999988,30.4805545531
185174.2999999989,30.4804685545
185379.0999999988,30.4804266146
185788.6999999988,30.4803455434
186607.8999999989,30.4801936282
187017.4999999989,30.4801210697
187836.6999999989,30.4799846089
188246.2999999989,30.4799192715
189065.4999999989,30.4797960114
189475.0999999989,30.4797368696
190294.2999999989,30.4796249929
190703.8999999989,30.4795712110
191523.0999999989,30.4794692194
191932.6999999989,30.4794201033
192751.8999999989,30.4793267416
193161.4999999990,30.4792817068
193980.6999999990,30.4791959128
194390.2999999990,30.4791544632
195209.4999999990,30.4790753325
195619.0999999990,30.4790370450
196438.2999999990,30.4789638049
196847.8999999990,30.4789283177
197667.0999999990,30.4788603068
198076.6999999990,30.4788273098
198895.8999999990,30.4787639606
199305.4999999990,30.4787331877
200124.6999999991,30.4786740126
200534.2999999991,30.4786452348
201353.4999999991,30.4785898135
201763.0999999991,30.4785628332
202582.2999999991,30.4785108023
202991.8999999991,30.4784854482
203811.0999999991,30.4784364919
204220.6999999991,30.4784126151
205039.8999999991,30.4783664575
205449.4999999991,30.4783439274
206268.6999999991,30.4783003261
206678.2999999991,30.4782790276
207497.4999999992,30.4782377678
207907.0999999992,30.4782175986
208726.2999999992,30.4781784887
209135.8999999992,30.4781593572
209955.0999999992,30.4781222246
210364.6999999992,30.4781040482
211183.8999999992,30.4780687362
211593.4999999992,30.4780514393
212412.6999999992,30.4780178044
212822.2999999992,30.4780013178
213641.4999999992,30.4779692272
214051.0999999992,30.4779534864
214870.2999999993,30.4779228163
215279.8999999993,30.4779077609
216099.0999999993,30.4778783946
216508.6999999993,30.4778639676
217327.8999999993,30.4778357941
217737.4999999993,30.4778219409
218556.6999999993,30.4777948535
218966.2999999993,30.4777815216
219785.4999999993,30.4777554165
220195.0999999993,30.4777425545
221014.2999999993,30.4777173298
221423.8999999994,30.4777048869
222243.0999999994,30.4776804409
222652.6999999994,30.4776683660
223471.8999999994,30.4776445957
223881.4999999994,30.4776328367
224700.6999999994,30.4776096359
225110.2999999994,30.4775981389
225929.4999999994,30.4775753959
226339.0999999994,30.4775641035
227158.2999999994,30.4775416983
227567.8999999994,30.4775305483
228387.0999999995,30.4775083488
228796.6999999995,30.4774972719
229615.8999999995,30.4774751289
230025.4999999995,30.4774640461
230844.6999999995,30.4774417865
231254.2999999995,30.4774306052
232073.4999999995,30.4774080230
232483.0999999995,30.4773966315
233302.2999999995,30.4773734740
233711.8999999995,30.4773617341
234531.0999999995,30.4773376839
234940.6999999995,30.4773254199
235759.8999999996,30.4773000674
236169.4999999996,30.4772870504
236988.6999999996,30.4772598549
237398.2999999996,30.4772457800
238217.4999999996,30.4772160123
238627.0999999996,30.4772004656
239446.2999999996,30.4771671284
239855.8999999996,30.4771495415
240675.0999999996,30.4771112620
241084.6999999996,30.4770908536
241289.4999999996,30.4770803023
241699.0999999996,30.4770581364
241903.8999999996,30.4770466484
242313.4999999996,30.4770224350
242518.2999999996,30.4770098580
242927.8999999996,30.4769832723
243132.6999999996,30.4769694372
243542.2999999996,30.4769401251
243747.0999999996,30.4769248502
244156.6999999996,30.4768924400
244361.4999999996,30.4768755382
244771.0999999996,30.4768396605
244975.8999999996,30.4768209510
245385.4999999996,30.4767812660
245590.2999999996,30.4767605898
245999.8999999996,30.4767168213
246204.6999999996,30.4766940584
246614.2999999996,30.4766460278
246819.0999999996,30.4766211130
247228.6999999996,30.4765687641
247433.4999999996,30.4765416967
247843.0999999996,30.4764851039
248047.8999999996,30.4764559471
248457.4999999996,30.4763953022
248662.2999999996,30.4763641723
249071.8999999996,30.4762997516
249276.6999999995,30.4762667987
249686.2999999996,30.4761989212
249891.0999999995,30.4761643075
250300.6999999995,30.4760932930
250505.4999999995,30.4760571741
250915.0999999995,30.4759833132
251119.8999999995,30.4759458257
251529.4999999995,30.4758693649
251734.2999999995,30.4758306226
252143.8999999995,30.4757517669
252348.6999999995,30.4757118657
252758.2999999995,30.4756307970
252963.0999999995,30.4755898274
253372.6999999995,30.4755067383
253577.4999999995,30.4754648046
253987.0999999995,30.4753799414
254191.8999999995,30.4753371845
254601.4999999995,30.4752508938
254806.2999999995,30.4752075134
255215.8999999995,30.4751202778
255420.6999999995,30.4750765465
255830.2999999995,30.4749889966
256035.0999999995,30.4749452580
256444.6999999995,30.4748581460
256649.4999999995,30.4748147938
257059.0999999995,30.4747289310
257263.8999999995,30.4746863720
257673.4999999995,30.4746025457
257878.2999999995,30.4745611569
258287.8999999995,30.4744800522
258492.6999999995,30.4744401465
258902.2999999995,30.4743622938
259107.0999999995,30.4743241007
259516.6999999995,30.4742498578
259721.4999999994,30.4742135209
260131.0999999995,30.4741430838
260335.8999999994,30.4741086708
260745.4999999994,30.4740421010
260950.2999999994,30.4740096195
261359.8999999994,30.4739468784
261564.6999999994,30.4739162926
261974.2999999994,30.4738572724
262179.0999999995,30.4738285179
262588.6999999994,30.4737730677
263407.8999999994,30.4736699296
263817.4999999994,30.4736210102
264636.6999999994,30.4735300982
265046.2999999994,30.4734869922
265865.4999999994,30.4734068913
266275.0999999994,30.4733689081
267094.2999999994,30.4732983040
267503.8999999994,30.4732648133
268323.0999999994,30.4732025248
268732.6999999994,30.4731729645
269551.8999999994,30.4731179449
269961.4999999994,30.4730918187
270780.6999999994,30.4730431478
271190.2999999993,30.4730200205
272009.4999999994,30.4729768932
272419.0999999993,30.4729563844
273238.2999999993,30.4729180981
273647.8999999993,30.4728998765
274467.0999999993,30.4728658204
274876.6999999993,30.4728495980
275695.8999999993,30.4728192414
276105.4999999993,30.4728047682
276924.6999999993,30.4727776510
277334.2999999993,30.4727647103
278153.4999999993,30.4727404335
278563.0999999993,30.4727288375
279382.2999999993,30.4727070553
279791.8999999993,30.4726966412
280611.0999999993,30.4726770538
281020.6999999993,30.4726676803
281839.8999999993,30.4726500277
282249.4999999992,30.4726415722
283068.6999999993,30.4726256283
283478.2999999992,30.4726179843
284297.4999999992,30.4726035526
284707.0999999992,30.4725966274
285526.2999999992,30.4725835367
285935.8999999992,30.4725772495
286755.0999999992,30.4725653504
287164.6999999992,30.4725596305
287983.8999999992,30.4725487925
288393.4999999992,30.4725435783
289212.6999999992,30.4725336871
289622.2999999992,30.4725289244
290441.4999999992,30.4725198797
290851.0999999992,30.4725155212
291670.2999999992,30.4725072348
293308.6999999992,30.4724922093
294127.8999999992,30.4724852024
295766.2999999992,30.4724724468
296585.4999999992,30.4724664816
298223.8999999993,30.4724555822
299043.0999999993,30.4724504715
300681.4999999993,30.4724411004
301500.6999999993,30.4724366953
303139.0999999993,30.4724285912
303958.2999999993,30.4724247727
305596.6999999994,30.4724177258
306415.8999999994,30.4724143979
308054.2999999994,30.4724082384
308873.4999999994,30.4724053235
310511.8999999994,30.4723999134
311331.0999999995,30.4723973481
312969.4999999995,30.4723925742
313788.6999999995,30.4723903064
315427.0999999995,30.4723860758
316246.2999999995,30.4723840626
317884.6999999995,30.4723802981
318703.8999999996,30.4723785037
320342.2999999996,30.4723751411
321161.4999999996,30.4723735358
322799.8999999996,30.4723705213
323619.0999999996,30.4723690801
325257.4999999997,30.4723663684
326076.6999999997,30.4723650702
327715.0999999997,30.4723626232
328534.2999999997,30.4723614501
330172.6999999997,30.4723592352
330991.8999999997,30.4723581721
332630.2999999998,30.4723561614
333449.4999999998,30.4723551953
335087.8999999998,30.4723533652
335907.0999999998,30.4723524849
337545.4999999998,30.4723508150
338364.6999999998,30.4723500109
340003.0999999999,30.4723484834
340822.2999999999,30.4723477471
342460.6999999999,30.4723463467
343279.8999999999,30.4723456711
344918.2999999999,30.4723443846
345737.4999999999,30.4723437633
347375.9000000000,30.4723425789
348195.1000000000,30.4723420065
349833.5000000000,30.4723409140
350652.7000000000,30.4723403856
352291.1000000000,30.4723393760
353110.3000000000,30.4723388874
354748.7000000001,30.4723379530
358025.5000000001,30.4723362391
359663.9000000001,30.4723354334
362940.7000000001,30.4723339507
364579.1000000001,30.4723332519
367855.9000000001,30.4723319622
369494.3000000001,30.4723313532
372771.1000000001,30.4723302259
374409.5000000001,30.4723296925
377686.3000000001,30.4723288402
379324.7000000001,30.4723283654
382601.5000000001,30.4723274826
384239.9000000001,30.4723270636
387516.7000000001,30.4723262830
389155.1000000002,30.4723259119
392431.9000000001,30.4723252192
394070.3000000002,30.4723248895
397347.1000000002,30.4723242730
398985.5000000002,30.4723239792
402262.3000000002,30.4723235235
403900.7000000002,30.4723232575
407177.5000000002,30.4723227588
408815.9000000002,30.4723225206
412092.7000000002,30.4723220735
413731.1000000002,30.4723218598
417007.9000000002,30.4723214580
418646.3000000002,30.4723212658
421923.1000000002,30.4723209040
423561.5000000002,30.4723207308
426838.3000000002,30.4723204045
428476.7000000002,30.4723202482
431753.5000000002,30.4723199534
433391.9000000003,30.4723198121
436668.7000000002,30.4723195453
438307.1000000003,30.4723194173
441583.9000000003,30.4723192327
443222.3000000003,30.4723191148
446499.1000000003,30.4723188919
448137.5000000003,30.4723187849
451414.3000000003,30.4723185824
453052.7000000003,30.4723184851
456329.5000000003,30.4723183010
457967.9000000003,30.4723182124
461244.7000000003,30.4723180447
462883.1000000003,30.4723179640
466159.9000000003,30.4723178110
467798.3000000003,30.4723177374
471075.1000000003,30.4723175978
472713.5000000003,30.4723175306
475990.3000000003,30.4723174030
477628.7000000004,30.4723173415
480905.5000000003,30.4723172247
482543.9000000004,30.4723171685
485820.7000000004,30.4723170615
487459.1000000004,30.4723170100
490735.9000000004,30.4723169119
492374.3000000004,30.4723168646
495651.1000000004,30.4723167746
497289.5000000004,30.4723167312
500566.3000000004,30.4723166484
507119.9000000004,30.4723165958
520227.1000000004,30.4723164388
526780.7000000004,30.4723163849
530057.5000000005,30.4723163203
536611.1000000004,30.4723162878
549718.3000000004,30.4723162118
575932.7000000004,30.4723160971
589039.9000000004,30.4723160098
595593.5000000003,30.4723159786
608700.7000000003,30.4723159105
615254.3000000003,30.4723158883
628361.5000000002,30.4723158361
654575.9000000003,30.4723157731
667683.1000000002,30.4723157271
693897.5000000002,30.4723156842
707004.7000000002,30.4723156516
733219.1000000002,30.4723156214
746326.3000000002,30.4723156002
772540.7000000002,30.4723155789
785647.9000000001,30.4723155588
811862.3000000002,30.4723155422
824969.5000000001,30.4723155321
851183.9000000001,30.4723155212
864291.1000000001,30.4723155114
890505.5000000001,30.4723155025
903612.7000000001,30.4723154929
929827.1000000001,30.4723154859
982255.9000000001,30.4723154765
1087113.5000000002,30.4723154675
